Name,BodyweightKg,Squat1Kg,Squat2Kg,Squat3Kg,Best3SquatKg,Bench1Kg,Bench2Kg,Bench3Kg,Best3BenchKg,Bench4Kg,Deadlift1Kg,Deadlift2Kg,Deadlift3Kg,Best3DeadliftKg,Deadlift4Kg,TotalKg,WeightClassKg,Sex,CyrillicName,BirthYear,Event,Equipment,Division,Place
Yaroslav Chopovskiy,51.8,160,-180,-180,160,90,-100,100,100,,180,190,200,200,,460,52,M,Ярослав Чоповский,1962,SBD,Single-ply,Open,1
Vyacheslav Gorbunov #2,51.7,-150,150,155,155,-100,100,-105,100,,-165,165,170,170,,425,52,M,Вячеслав Горбунов,1975,SBD,Single-ply,Open,2
Aleksandr Bnatov,51.8,130,137.5,142.5,142.5,85,90,95,95,,160,170,-175,170,,407.5,52,M,Александр Бнатов,1966,SBD,Single-ply,Open,3
Andrey Podpalny,51.9,,,,,135,140,-145,140,,,,,,,,52,M,Андрей Подпальный,1968,SBD,Single-ply,Open,DQ
Aleksey Svistunov,51.55,155,-165,-165,155,100,-105,-105,100,,-170,-170,,,,,52,M,Алексей Свистунов,1969,SBD,Single-ply,Open,DQ
Konstantin Pavlov,55,210,217.5,222.5,222.5,130,137.5,142.5,142.5,,180,190,-200,190,,555,56,M,Константин Павлов,1973,SBD,Single-ply,Open,1
Alexey Sidorov,55.7,180,-190,-190,180,125,132.5,138,138,,200,-215,-215,200,,518,56,M,Алексей Сидоров,1974,SBD,Single-ply,Open,2
Mikhail Andryukhin,55.6,170,180,-185,180,95,-102.5,-102.5,95,,180,190,-195,190,,465,56,M,Михаил Андрюхин,1970,SBD,Single-ply,Open,3
Sergey Tolstukhin,55.95,140,147.5,152.5,152.5,82.5,87.5,-90,87.5,,160,-165,165,165,,405,56,M,Сергей Толстухин,1977,SBD,Single-ply,Open,4
Vyacheslav Kulakov,55.3,125,132.5,135,135,92.5,-97.5,-97.5,92.5,,155,162.5,-167.5,162.5,,390,56,M,Вячеслав Кулаков,1964,SBD,Single-ply,Open,5
Valeriy Dal-Zagayka,55.95,-160,-160,160,160,85,-92.5,-92.5,85,,135,145,,145,,390,56,M,Валерий Даль-Загайка,1977,SBD,Single-ply,Open,6
Valeriy Bogdanov,59.8,222.5,227.5,230,230,157.5,162.5,165,165,,187.5,192.5,-197.5,192.5,,587.5,60,M,Валерий Богданов,1970,SBD,Single-ply,Open,1
Nikolay Galkin,60,210,-220,220,220,125,132.5,135,135,,205,212.5,215,215,,570,60,M,Николай Галкин,1956,SBD,Single-ply,Open,2
Evgeniy Dolgov,59.85,210,217.5,-220,217.5,112.5,-120,-120,112.5,,210,217.5,-227.5,217.5,,547.5,60,M,Евгений Долгов,1976,SBD,Single-ply,Open,3
Aleksandr Romanichev,59.5,185,195,-202.5,195,112.5,120,122.5,122.5,,195,210,-222.5,210,,527.5,60,M,,1963,SBD,Single-ply,Open,4
Igor Rovchakov,59.45,180,-185,-185,180,-110,-110,110,110,,180,185,-190,185,,475,60,M,Игорь Ровчаков,1971,SBD,Single-ply,Open,5
Timur Rizaev,59.85,-130,130,-140,130,-100,100,110,110,,180,187.5,-200,187.5,,427.5,60,M,Тимур Ризаев,1974,SBD,Single-ply,Open,6
Sergey Kanygin,60,-180,,,,,,,,,,,,,,,60,M,Сергей Каныгин,1973,SBD,Single-ply,Open,DQ
Aleksandr Kodolov,60,-200,200,-210,200,-150,-150,,,,,,,,,,60,M,Александр Кодолов,1962,SBD,Single-ply,Open,DQ
Vladimir Ivanov,59.8,160,170,-175,170,-110,,-110,,,,,,,,,60,M,Владимир Иванов,1958,SBD,Single-ply,Open,DQ
Mikhail Smirnov,67.5,250,-265,-265,250,167.5,-172.5,172.5,172.5,175.5,230,247.5,250,250,,672.5,67.5,M,Михаил Смирнов,1970,SBD,Single-ply,Open,1
Alexander Ukhanov,67,225,-235,235,235,-155,-160,160,160,,235,-245,-245,235,,630,67.5,M,Александр Уханов,1975,SBD,Single-ply,Open,2
Gennadiy Sayapin,67.3,-230,230,-237.5,230,-145,145,-150,145,,-235,235,,235,,610,67.5,M,Геннадий Саяпин,1952,SBD,Single-ply,Open,3
Valery Krioni,67,205,215,-220,215,155,160,165,165,,215,225,-230,225,,605,67.5,M,Валерий Криони,1964,SBD,Single-ply,Open,4
Sergey Maydanovskiy,67.05,-210,210,220,220,120,130,135,135,,220,230,240,240,,595,67.5,M,Сергей Майдановский,1972,SBD,Single-ply,Open,5
Sergey Ushakov,67.15,210,-220,-220,210,150,-155,155,155,,200,215,225,225,,590,67.5,M,Сергей Ушаков,1974,SBD,Single-ply,Open,6
Gennadiy Chuldenko,67.45,210,217.5,220,220,90,95,,95,,250,265,272.5,272.5,280.5,587.5,67.5,M,Геннадий Чулденко,1948,SBD,Single-ply,Open,7
Viktor Tamochkin,67.5,200,-215,-215,200,142.5,150,160,160,,205,220,,220,,580,67.5,M,Виктор Тамочкин,1975,SBD,Single-ply,Open,8
Vladimir Zakharov,66.75,195,200,205,205,150,155,-160,155,,210,-220,-220,210,,570,67.5,M,Владимир Захаров,1969,SBD,Single-ply,Open,9
Andrey Mikhaylov,67.5,190,205,217.5,217.5,125,137.5,-145,137.5,,190,-205,,190,,545,67.5,M,Андрей Михайлов,1974,SBD,Single-ply,Open,11
Dmitriy Evstratenko,66.5,195,202.5,210,210,120,125,-130,125,,195,202.5,210,210,,545,67.5,M,Дмитрий Евстратенко,1974,SBD,Single-ply,Open,10
Viktor Furazhkin,66.65,190,200,205,205,110,115,-120,115,,200,205,-210,205,,525,67.5,M,Виктор Фуражкин,1969,SBD,Single-ply,Open,12
Dmitriy Galtsev,67.05,175,185,-195,185,110,120,125,125,,187.5,200,215,215,,525,67.5,M,Дмитрий Гальцев,1976,SBD,Single-ply,Open,13
Anatoliy Kozyrin,65.6,180,-192.5,-192.5,180,95,-100,100,100,,190,200,-210,200,,480,67.5,M,Анатолий Козырин,1941,SBD,Single-ply,Open,14
Yuriy Cherdantsev,67.5,,,,,155,162.5,-167.5,162.5,,,,,,,,67.5,M,Юрий Черданцев,1962,SBD,Single-ply,Open,DQ
Vyacheslav Varichev,66.3,,,,,150,155,-160,155,,,,,,,,67.5,M,Вячеслав Варичев,1970,SBD,Single-ply,Open,DQ
Sergey Nochnoy,73.15,250,265,-270,265,170,-180,-180,170,,255,265,272.5,272.5,,707.5,75,M,Сергей Ночной,1965,SBD,Single-ply,Open,1
Viktor Timin,75,-255,260,-265,260,-160,160,-165,160,,250,260,262.5,262.5,,682.5,75,M,Виктор Тимин,1964,SBD,Single-ply,Open,2
Aleksandr Kokornov,74.7,240,250,-255,250,150,160,-162.5,160,,252.5,260,270,270,,680,75,M,Александр Кокорнов,1964,SBD,Single-ply,Open,3
Pavel Chernyshov,74.75,-260,260,-267.5,260,180,-182.5,-182.5,180,,-240,240,-260,240,,680,75,M,Павел Чернышов,1961,SBD,Single-ply,Open,4
Ramil Shafeev,74.3,250,-260,-260,250,150,-160,-160,150,,260,270,-280,270,,670,75,M,Рамиль Шафеев,1969,SBD,Single-ply,Open,5
Alexey Nemtsev,74,275,-285,-285,275,160,165,-167.5,165,,-220,220,-227.5,220,,660,75,M,Алексей Немцев,1975,SBD,Single-ply,Open,6
Sergey Velin,74.1,-220,-230,230,230,142.5,152.5,157.5,157.5,,230,252.5,260,260,,647.5,75,M,Сергей Велин,1973,SBD,Single-ply,Open,7
Vasiliy Golonovskiy,75,225,235,-240,235,140,145,-150,145,,245,255,-265,255,,635,75,M,Василий Голоновский,1959,SBD,Single-ply,Open,8
Vladimir Podrugin,74.8,230,240,-245,240,140,-150,152.5,152.5,,220,237.5,240,240,,632.5,75,M,Владимир Подругин,1965,SBD,Single-ply,Open,9
Andrey Mladentsev,74.2,230,-240,240,240,150,160,-162.5,160,,220,-230,230,230,,630,75,M,Андрей Младенцев,1969,SBD,Single-ply,Open,10
Yuriy Agalakov,74.7,210,220,230,230,120,-130,130,130,,210,220,-230,220,,580,75,M,Юрий Агалаков,1965,SBD,Single-ply,Open,11
Oleg Gavrilov,73.1,160,172.5,182.5,182.5,-110,-117.5,117.5,117.5,,175,185,195,195,,495,75,M,Олег Гаврилов,1971,SBD,Single-ply,Open,12
Vladimir Larionov,73.1,,,,,170,-177.5,-177.5,170,,,,,,,,75,M,Владимир Ларионов,1958,SBD,Single-ply,Open,DQ
Mikhail Sidorov,75,,,,,,,,,,,,,,,,75,M,Михаил Сидоров,1963,SBD,Single-ply,Open,DQ
Valeriy Sukharev,74.9,,,,,,,,,,,,,,,,75,M,Валерий Сухарев,1956,SBD,Single-ply,Open,DQ
Vladimir Chudakov,74.4,,,,,170,177.5,-180,177.5,,,,,,,,75,M,Владимир Чудаков,1972,SBD,Single-ply,Open,DQ
Yuriy Usov,74,225,-235,-235,225,-160,-160,-160,,,,,,,,,75,M,Юрий Усов,1964,SBD,Single-ply,Open,DQ
Vladimir Gavrin,74.8,225,-235,-235,225,-130,-140,-140,,,,,,,,,75,M,Владимир Гаврин,1974,SBD,Single-ply,Open,DQ
Igor Kashtanov,75,,,,,125,-132.5,132.5,132.5,,,,,,,,75,M,Игорь Каштанов,1952,SBD,Single-ply,Open,DQ
Andrey Abramov,75,-220,-220,220,220,-140,-140,-140,,,,,,,,,75,M,Андрей Абрамов,1976,SBD,Single-ply,Open,DQ
Dmitriy Kuznetsov,74.4,-215,,-215,,140,-150,,140,,,,,,,,75,M,Дмитрий Кузнецов,1973,SBD,Single-ply,Open,DQ
Aleksey Syomkin,67.3,150,160,-167.5,160,-102.5,-102.5,-105,,,,,,,,,67.5,M,Алексей Сёмкин,1975,SBD,Single-ply,Open,DQ
Mikhail Kudryavtsev,74.45,,,,,160,-165,165,165,,,,,,,,75,M,Михаил Кудрявцев,1971,SBD,Single-ply,Open,DQ
Alexander Korotchenkov,81.9,270,280,285,285,177.5,185,192.5,192.5,,270,280,290,290,,767.5,82.5,M,Александр Коротченков,1960,SBD,Single-ply,Open,1
Igor Alikberov,81.7,260,-270,272.5,272.5,165,175,180,180,,280,-290,-290,280,,732.5,82.5,M,Игорь Аликберов,1972,SBD,Single-ply,Open,2
Mikhail Ivanov,82.5,250,-270,270,270,130,145,155,155,,270,300,-305,300,,725,82.5,M,Михаил Иванов,1964,SBD,Single-ply,Open,3
Dmitriy Fedenko,81.5,265,275,-285,275,162.5,170,-175,170,,260,275,-280,275,,720,82.5,M,Дмитрий Феденко,1975,SBD,Single-ply,Open,4
Igor Garanin,82,-270,270,280,280,-160,160,-170,160,,270,-280,280,280,,720,82.5,M,Игорь Гаранин,1966,SBD,Single-ply,Open,5
Vitaliy Roshuor,82.5,250,270,-285,270,165,175,-180,175,,250,270,-280,270,,715,82.5,M,Виталий Рошуор,1963,SBD,Single-ply,Open,6
Pavel Sboev,81.7,240,250,,250,155,162.5,-167.5,162.5,,257.5,270,280,280,,692.5,82.5,M,Павел Сбоев,1968,SBD,Single-ply,Open,7
Anatoliy Potyakin,82,250,-260,-265,250,-145,150,155,155,,260,280,-285,280,,685,82.5,M,Анатолий Потякин,1973,SBD,Single-ply,Open,8
Igor Suraykin,82,230,-235,235,235,-170,170,175,175,,250,260,-265,260,,670,82.5,M,Игорь Сурайкин,1967,SBD,Single-ply,Open,9
Sergey Rykov,78.9,230,240,-245,240,160,165,172.5,172.5,,240,250,-260,250,,662.5,82.5,M,Сергей Рыков,1958,SBD,Single-ply,Open,10
Andrey Serikov,80.8,220,240,250,250,145,-150,-150,145,,260,-270,-270,260,,655,82.5,M,Андрей Сериков,1976,SBD,Single-ply,Open,11
Viktor Skokin,81.6,230,-240,-240,230,140,-145,-150,140,,275,-285,-290,275,,645,82.5,M,Виктор Скокин,1957,SBD,Single-ply,Open,16
Aleksey Kokorin,81.9,230,-240,,230,135,140,145,145,,260,280,-295,280,,655,82.5,M,Алексей Кокорин,1965,SBD,Single-ply,Open,12
Andrey Nazarov,82.3,220,235,245,245,-140,140,155,155,,230,250,-270,250,,650,82.5,M,Андрей Назаров,1973,SBD,Single-ply,Open,13
Vitaliy Baykin,82.4,-230,240,-245,240,155,160,170,170,,240,-260,,240,,650,82.5,M,Виталий Байкин,1961,SBD,Single-ply,Open,14
Sergey Pavlov,81.1,240,-250,-250,240,-140,-140,140,140,,250,265,-270,265,,645,82.5,M,Сергей Павлов,1964,SBD,Single-ply,Open,15
Vladimir Kazanin,82.2,225,-230,-230,225,160,-165,-165,160,,250,-260,-260,250,,635,82.5,M,Владимир Казанин,1955,SBD,Single-ply,Open,17
Stanislav Shostak,80.5,200,210,225,225,145,152.5,-155,152.5,,215,-230,235,235,,612.5,82.5,M,Станислав Шостак,1964,SBD,Single-ply,Open,18
Stanislav Safonov,82,220,-240,-240,220,-120,120,-130,120,,220,230,-240,230,,570,82.5,M,Станислав Сафонов,1973,SBD,Single-ply,Open,19
Yuriy Kopylov,81.8,190,200,-210,200,-150,-160,,,,170,180,,180,,380,82.5,M,Юрий Копылов,1969,SBD,Single-ply,Open,21
Aleksey Yutkin,80.2,170,180,185,185,125,130,-135,130,,190,-200,205,205,,520,82.5,M,Алексей Юткин,1974,SBD,Single-ply,Open,20
Aleksandr Sorokin,81.5,-280,,,,,,,,,,,,,,,82.5,M,Александр Сорокин,1956,SBD,Single-ply,Open,DQ
Igor Butusov,81.6,,,,,-180,180,190,190,,,,,,,,82.5,M,Игорь Бутусов,1971,SBD,Single-ply,Open,DQ
Vladimir Larionov,82,-240,,,,,,,,,,,,,,,82.5,M,Владимир Ларионов,1958,SBD,Single-ply,Open,DQ
Vasiliy Savinykh,81.7,,,,,-170,-170,-170,,,,,,,,,82.5,M,Василий Савиных,1956,SBD,Single-ply,Open,DQ
Valeriy Andrianov,82.45,-220,225,230,230,180,185,190,190,,-250,-250,,,,,82.5,M,Валерий Андрианов,1969,SBD,Single-ply,Open,DQ
Vladimir Androsov,82.3,-200,-200,-200,,,,,,,,,,,,,82.5,M,Владимир Андросов,1970,SBD,Single-ply,Open,DQ
Asaf Akhmedov,82,-225,-225,-225,,-170,170,-180,170,,-225,,,,,,82.5,M,Асаф Ахмедов,1965,SBD,Single-ply,Open,DQ
Alexander Lekomtsev,89.5,310,320,325,325,217.5,222.5,-227.5,222.5,,300,-310,310,310,,857.5,90,M,Александр Лекомцев,1965,SBD,Single-ply,Open,1
Sergei Ivanov,89.8,320,-327.5,327.5,327.5,-190,190,-192.5,190,,300,315,325,325,,842.5,90,M,Сергей Иванов,1960,SBD,Single-ply,Open,2
Alexander Dekhanov,89.4,300,320,330,330,190,197.5,202.5,202.5,,302.5,-325,-335,302.5,,835,90,M,Александр Деханов,1964,SBD,Single-ply,Open,3
Viktor Chernysh #1,89.9,290,297.5,-300,297.5,180,185,190,190,,310,-320,,310,,797.5,90,M,Виктор Черныш,1964,SBD,Single-ply,Open,4
Roman Shepelev,88.6,260,270,285,285,165,-172.5,-172.5,165,,295,310,-335,310,,760,90,M,Роман Шепелев,1975,SBD,Single-ply,Open,5
Victor Kotelnikov,89.45,270,280,-287.5,280,-175,175,182.5,182.5,,270,-285,-285,270,,732.5,90,M,Виктор Котельников,1956,SBD,Single-ply,Open,6
Konstantin Drachev,89.8,270,-280,285,285,187.5,-192.5,-192.5,187.5,,250,-260,,250,,722.5,90,M,Константин Драчев,1961,SBD,Single-ply,Open,7
Valeriy Poverinov,89.5,255,262.5,267.5,267.5,-165,165,-170,165,,270,280,-285,280,,712.5,90,M,Валерий Поверинов,1965,SBD,Single-ply,Open,8
Evgeniy Shvetsov,85.55,255,262.5,267.5,267.5,170,175,-180,175,,260,267.5,-270,267.5,,710,90,M,Евгений Швецов,1975,SBD,Single-ply,Open,9
Igor Khakimov,89.3,260,-280,280,280,150,160,170,170,,250,260,,260,,710,90,M,Игорь Хакимов,1968,SBD,Single-ply,Open,10
Aleksey Kokovin,89.6,250,260,-270,260,180,187.5,190,190,,245,260,-270,260,,710,90,M,Алексей Коковин,1972,SBD,Single-ply,Open,11
Vladislav Valentir,89.5,240,250,260,260,155,-165,170,170,,255,270,277.5,277.5,,707.5,90,M,Владислав Валентир,1974,SBD,Single-ply,Open,12
Vladislav Kobelev,87,250,-265,-270,250,180,-195,-202.5,180,,-260,270,-280,270,,700,90,M,Владислав Кобелев,1968,SBD,Single-ply,Open,13
Valeriy Nikashin,88.2,-260,260,-280,260,175,-185,-185,175,,260,-270,,260,,695,90,M,Валерий Никашин,1963,SBD,Single-ply,Open,14
Aleksandr Kuzmin,87.5,-250,260,-265,260,145,152.5,-160,152.5,,280,-295,-295,280,,692.5,90,M,Александр Кузьмин,,SBD,Single-ply,Open,15
Dmitriy Malyshev,90,260,265,-270,265,-165,165,-167.5,165,,260,-270,-270,260,,690,90,M,Дмитрий Малышев,1973,SBD,Single-ply,Open,16
Sergey Chugunov,89.1,205,220,-230,220,140,-145,145,145,,210,220,,220,,585,90,M,Сергей Чугунов,1974,SBD,Single-ply,Open,24
Sergey Anatskiy,88.4,240,255,-262.5,255,152.5,-160,160,160,,245,260,-280,260,,675,90,M,Сергей Анацкий,1966,SBD,Single-ply,Open,17
Sergey Sidenko,89.5,240,-245,-245,240,160,165,-170,165,,270,-290,-290,270,,675,90,M,Сергей Сиденко,1961,SBD,Single-ply,Open,18
Sergey Sidorin,89.5,260,-270,-270,260,150,160,165,165,,240,-270,-270,240,,665,90,M,Сергей Сидорин,1964,SBD,Single-ply,Open,19
Evgeniy Kurtsev,89.85,225,-240,-250,225,160,172.5,177.5,177.5,,250,-272.5,-272.5,250,,652.5,90,M,Евгений Курцев,1971,SBD,Single-ply,Open,20
Anton Sinitskiy,88.5,220,230,235,235,150,170,-175,170,,220,240,-250,240,,645,90,M,Антон Синицкий,1975,SBD,Single-ply,Open,21
Yuriy Prudnikov,90,180,200,-220,200,170,180,190,190,,200,220,-230,220,,610,90,M,Юрий Прудников,1970,SBD,Single-ply,Open,23
Andrey Maloletov,87.55,210,220,-230,220,150,-160,165,165,,220,-230,230,230,,615,90,M,Андрей Малолетов,1973,SBD,Single-ply,Open,22
Andrey Semenov,89,210,225,235,235,125,140,-150,140,,180,200,-210,200,,575,90,M,Андрей Семенов,1974,SBD,Single-ply,Open,25
Sergey Sharov,89.55,-290,-290,300,300,-215,-215,-215,,,,,,,,,90,M,Сергей Шаров,1964,SBD,Single-ply,Open,DQ
Yuriy Ustinov,86,-280,,,,,,,,,,,,,,,90,M,Юрий Устинов,1975,SBD,Single-ply,Open,DQ
Aleksandr Shvayko,89.95,272.5,292.5,295,295,192.5,197.5,-200,197.5,,-270,-270,-270,,,,90,M,Александр Швайко,1969,SBD,Single-ply,Open,DQ
Evgeniy Voronin,88.5,,,,,205,210,212.5,212.5,,,,,,,,90,M,Евгений Воронин,1965,SBD,Single-ply,Open,DQ
Sergey Khramenkov,89.9,-285,-290,-290,,-195,-195,-195,,,,,,,,,90,M,Сергей Храменков,1958,SBD,Single-ply,Open,DQ
Konstantin Larin,88,-300,-300,-300,,,,,,,,,,,,,90,M,Константин Ларин,1965,SBD,Single-ply,Open,DQ
Vladimir Sivtsov,88.5,,,,,135,-140,-140,135,,,,,,,,90,M,Владимир Сивцов,1963,SBD,Single-ply,Open,DQ
Eduard Privalov,88.4,,,,,-165,170,-175,170,,,,,,,,90,M,Эдуард Привалов,1968,SBD,Single-ply,Open,DQ
Dmitriy Grachev,89.95,,,,,192.5,-197.5,-197.5,192.5,,,,,,,,90,M,Дмитрий Грачев,1972,SBD,Single-ply,Open,DQ
Yuriy Bukharov,90,-235,-235,-235,,170,-172.5,,170,,,,,,,,90,M,Юрий Бухаров,1960,SBD,Single-ply,Open,DQ
Alexey Gankov,100,300,312.5,320,320,210,220,227.5,227.5,,335,352.5,367.5,367.5,,915,100,M,Алексей Ганьков,1970,SBD,Single-ply,Open,1
Vladimir Markovsky,99.4,355,362.5,-365,362.5,210,-215,-215,210,,330,340,-345,340,,912.5,100,M,Владимир Марковский,1969,SBD,Single-ply,Open,2
Gennadiy Mamin,98.15,-290,300,325,325,170,-185,187.5,187.5,,270,290,-307.5,290,,802.5,100,M,Геннадий Мамин,1966,SBD,Single-ply,Open,3
Alexei Malyarenko,98.75,260,280,290,290,170,180,-190,180,,280,300,310,310,,780,100,M,Алексей Маляренко,1971,SBD,Single-ply,Open,4
Vladimir Gurov,100,-290,290,,290,182.5,187.5,192.5,192.5,,275,280,285,285,,767.5,100,M,Владимир Гуров,1959,SBD,Single-ply,Open,5
Alexey Samsonov,99.25,270,280,-287.5,280,-205,205,215.5,215.5,,-270,270,-275,270,,765.5,100,M,Алексей Самсонов,1974,SBD,Single-ply,Open,6
Oleg Poleschuk,98.75,260,275,280,280,195,200,-205,200,,250,270,280,280,,760,100,M,Олег Полещук,1968,SBD,Single-ply,Open,7
Oleg Demyakhin,97.2,270,285,292.5,292.5,-175,175,-190,175,,285,-295,-295,285,,752.5,100,M,Олег Демяхин,1974,SBD,Single-ply,Open,8
German Kolesnikov,96.1,260,-270,270,270,190,-205,205,205,,-270,270,-275,270,,745,100,M,Герман Колесников,1963,SBD,Single-ply,Open,9
Sergey Nadeev,91.9,-240,240,-255,240,160,170,-175,170,,280,290,300,300,,710,100,M,Сергей Надеев,1972,SBD,Single-ply,Open,11
Pavel Gaevskiy,97.2,250,-260,-265,250,-165,165,-170,165,,280,-290,,280,,695,100,M,Павел Гаевский,1956,SBD,Single-ply,Open,12
Maxim Gurianov,96.5,250,-260,-265,250,160,-165,,160,,270,280,-290,280,,690,100,M,Максим Гурьянов,1975,SBD,Single-ply,Open,13
Evgeniy Shorokhov,96.55,200,205,-210,205,155,160,-165,160,,225,235,,235,,600,100,M,Евгений Шорохов,1968,SBD,Single-ply,Open,14
Mikhail Trufanov,96,-255,-265,265,265,160,170,-172.5,170,,-275,-275,-275,,,,100,M,Михаил Труфанов,1953,SBD,Single-ply,Open,DQ
Igor Proklov,99.6,,,,,190,-200,,190,,,,,,,,100,M,Игорь Проклов,1961,SBD,Single-ply,Open,DQ
Sergey Burmistrov,97.5,310,-320,-320,310,-180,-180,-180,,,,,,,,,100,M,Сергей Бурмистров,1969,SBD,Single-ply,Open,DQ
Vladimir Tsukanov,99.35,,,,,192.5,202.5,,202.5,,,,,,,,100,M,Владимир Цуканов,1959,SBD,Single-ply,Open,DQ
Mikhail Kulikov,100,-340,340,-345,340,-210,-220,-220,,,,,,,,,100,M,Михаил Куликов,1961,SBD,Single-ply,Open,DQ
Ivan Kurpishev,97.1,-280,-280,,,-190,190,-200,190,,,,,,,,100,M,Иван Курпишев,1969,SBD,Single-ply,Open,DQ
Igor Kvaskov,95.15,-280,-280,-280,,-200,-200,200,200,,,,,,,,100,M,Игорь Квасков,1965,SBD,Single-ply,Open,DQ
Sergey Makarov,94.75,,,,,,,,,,,,,,,,100,M,Сергей Макаров,1956,SBD,Single-ply,Open,DQ
Nikolai Platoshechkin,110,340,350,355,355,190,200,205,205,,330,340,352.5,352.5,,912.5,110,M,Николай Платошечкин,1969,SBD,Single-ply,Open,1
Alexander Gorokhovsky,107.9,325,335,340,340,205,215,222.5,222.5,,310,-320,320,320,,882.5,110,M,Александр Гороховский,1962,SBD,Single-ply,Open,2
Oleg Sliva,106,325,340,-350,340,210,215,-220,215,,310,320,-322.5,320,,875,110,M,Олег Слива,1964,SBD,Single-ply,Open,3
Oleg Bokarev,101.8,280,295,-302.5,295,185,-192.5,195,195,,275,295,-300,295,,785,110,M,Олег Бокарев,1965,SBD,Single-ply,Open,4
Vyacheslav Chukhmanov,108.35,270,285,,285,230,240,,240,,260,-265,,260,,785,110,M,Вячеслав Чухманов,1966,SBD,Single-ply,Open,5
Andrey Zakharov,109.45,310,322.5,-330,322.5,180,-190,195,195,,240,260,,260,,777.5,110,M,Андрей Захаров,1974,SBD,Single-ply,Open,6
Aleksandr Pomeshhenko,109.35,270,280,290,290,180,-185,185,185,,290,-310,-310,290,,765,110,M,Александр Помещенко,1965,SBD,Single-ply,Open,7
Mikhail Podlegaev,108.4,260,275,-285,275,190,-200,200,200,,250,265,-270,265,,740,110,M,Михаил Подлегаев,1972,SBD,Single-ply,Open,8
Sergey Tsatskiy,104,-250,250,-260,250,165,-175,-175,165,,240,-250,,240,,655,110,M,Сергей Цацкий,1965,SBD,Single-ply,Open,9
Vladimir Tsapenko,107,220,-235,-240,220,130,-135,135,135,,-245,250,,250,,605,110,M,Владимир Цапенко,1957,SBD,Single-ply,Open,10
A Plaksin,108.4,-270,-290,-290,,,,,,,,,,,,,110,M,А Плаксин,1967,SBD,Single-ply,Open,DQ
Sergey Tereschenko,104,,,,,170,-175,-175,170,,,,,,,,110,M,Сергей Терещенко,1975,SBD,Single-ply,Open,DQ
Gennadiy Dubovitskiy,107.8,-260,260,-270,260,-182.5,,,,,,,,,,,110,M,Геннадий Дубовицкий,1966,SBD,Single-ply,Open,DQ
Aleksey Rudenko,106.15,,,,,-180,180,-190,180,,,,,,,,110,M,Алексей Руденко,1979,SBD,Single-ply,Open,DQ
Yuriy Khuazhev,102.2,,,,,215,222.5,230,230,,,,,,,,110,M,Юрий Хуажев,1970,SBD,Single-ply,Open,DQ
Viktor Kachusov,107.5,-310,-310,-310,,,,,,,,,,,,,110,M,Виктор Качусов,1960,SBD,Single-ply,Open,DQ
Pavel Badyrov,103.7,,,,,-215,215,-227.5,215,,,,,,,,110,M,Павел Бадыров,1964,SBD,Single-ply,Open,DQ
Andrey Galin,109.95,,,,,205,210,-215,210,,,,,,,,110,M,Андрей Галин,1967,SBD,Single-ply,Open,DQ
Igor Zavyalov,108.85,,,,,-202.5,-202.5,202.5,202.5,,,,,,,,110,M,Игорь Завьялов,1970,SBD,Single-ply,Open,DQ
Evgeniy Galakhov,114.5,320,330,340,340,210,220,225,225,,320,330,,330,,895,125,M,Евгений Галахов,1961,SBD,Single-ply,Open,1
Vladimir Simonenko,118.7,320,335,340,340,210,220,227.5,227.5,,300,312.5,-330,312.5,,880,125,M,Владимир Симоненко,1960,SBD,Single-ply,Open,2
Nikolay Bagrov,123.6,315,325,-335,325,215,,227.5,227.5,,290,300,307.5,307.5,,860,125,M,Николай Багров,1960,SBD,Single-ply,Open,3
Yuriy Bespalov,124.1,320,330,340,340,215,225,230,230,,270,290,-310,290,,860,125,M,Юрий Беспалов,1956,SBD,Single-ply,Open,4
Alexey Nemkov,115.55,270,280,-290,280,210,217.5,230,230,,280,290,300,300,,810,125,M,Алексей Немков,1974,SBD,Single-ply,Open,5
Alexei Golikov,123.2,310,325,-350,325,190,200,215,215,,250,270,-290,270,,810,125,M,Алексей Голиков,1972,SBD,Single-ply,Open,6
Aleksandr Kulikov,111.7,260,275,,275,200,210,220,220,,300,-325,-325,300,,795,125,M,Александр Куликов,1956,SBD,Single-ply,Open,7
Aleksandr Fomin,118.6,275,290,300,300,160,165,167.5,167.5,,280,302.5,,302.5,,770,125,M,Александр Фомин,1971,SBD,Single-ply,Open,8
Vadim Poberukhin,118.9,-250,250,,250,180,190,,190,,280,300,-310,300,,740,125,M,Вадим Поберухин,1961,SBD,Single-ply,Open,9
Mikhail Spekhov,113.2,245,-255,255,255,150,162.5,170,170,,235,255,265,265,,690,125,M,Михаил Спехов,1971,SBD,Single-ply,Open,10
Sergey Baranov,133.5,300,315,322.5,322.5,195,202.5,205,205,,275,285,-295,285,,812.5,125+,M,Сергей Баранов,1956,SBD,Single-ply,Open,1
Andrey Chalkov,137.5,310,-330,330,330,-180,190,-195,190,,250,270,,270,,790,125+,M,Андрей Чалков,1963,SBD,Single-ply,Open,2
Andrey Kolesov,125.4,250,-260,-270,250,190,-195,,190,,250,270,-280,270,,710,125+,M,Андрей Колесов,1968,SBD,Single-ply,Open,3
Dmitriy Vasilev,133.7,230,240,245,245,180,190,-200,190,,230,240,250,250,,685,125+,M,Дмитрий Васильев,1973,SBD,Single-ply,Open,4
Aleksey Kizaev,150.4,230,245,-252.5,245,115,,,115,,230,245,255,255,,615,125+,M,Алексей Кизаев,1956,SBD,Single-ply,Open,5
Oleg Gagin,126,-300,-300,-300,,,,,,,,,,,,,125+,M,Олег Гагин,1975,SBD,Single-ply,Open,DQ
Aleksandr Matveev,129.1,,,,,200,210,-220,210,,,,,,,,125+,M,Александр Матвеев,1965,SBD,Single-ply,Open,DQ
Yuriy Chelobitchikov,128.6,,,,,230,250,260,260,,,,,,,,125+,M,Юрий Челобитчиков,1964,SBD,Single-ply,Open,DQ
Sergey Galinskiy,99.5,250,260,265,265,190,-200,-200,190,,250,275,,275,,730,100,M,Сергей Галинский,1967,SBD,Single-ply,Open,10
Svetlana Tesleva,43.1,120,132.5,137.5,137.5,60,65,70,70,,122.5,132.5,140,140,,347.5,44,F,Светлана Теслева,1975,SBD,Single-ply,Open,1
Irina Krylova,43.8,130,137.5,-141,137.5,85,90,-92.5,90,,112.5,-117.5,-120,112.5,,340,44,F,Ирина Крылова,1978,SBD,Single-ply,Open,2
Nadezhda Chuinaeva,43.2,110,120,-125,120,55,60,62.5,62.5,,120,132.5,-137.5,132.5,,315,44,F,Надежда Чуйнаева,1962,SBD,Single-ply,Open,3
Irina Kropotova,43.35,102.5,107.5,110,110,-47.5,47.5,-50,47.5,,-107.5,112.5,117.5,117.5,,275,44,F,Ирина Кропотова,1967,SBD,Single-ply,Open,4
Tatyana Romanycheva,43.7,72.5,77.5,85,85,42.5,45,50,50,,90,97.5,107.5,107.5,,242.5,44,F,Татьяна Романычева,1969,SBD,Single-ply,Open,5
Elena Nevedomskaya,43.65,92.5,97.5,-102.5,97.5,32.5,-35,35,35,,92.5,97.5,105,105,,237.5,44,F,Елена Неведомская,1972,SBD,Single-ply,Open,6
Rimma Vafina,43.95,-100,-100,-100,,,,,,,,,,,,,44,F,Римма Вафина,1980,SBD,Single-ply,Open,DQ
Larisa Eynenkel,41.3,-70,-70,70,70,-37.5,-37.5,-37.5,,,,,,,,,44,F,Лариса Эйненкель,1974,SBD,Single-ply,Open,DQ
Larisa Ksenofontova,45.75,110,120,-125,120,47.5,50,52.5,52.5,,110,117.5,125,125,,297.5,48,F,Лариса Ксенофонтова,1967,SBD,Single-ply,Open,1
Valentina Gosteva,46.2,-100,100,-105,100,60,-65,-65,60,,130,135,-140,135,,295,48,F,Валентина Гостева,1955,SBD,Single-ply,Open,2
Tatyana Eltsova,47.4,110,120,-122.5,120,47.5,50,52.5,52.5,,110,120,-125,120,,292.5,48,F,Татьяна Ельцова,1978,SBD,Single-ply,Open,3
Irina Tatarova,44.9,112.5,-117.5,-120,112.5,45,-50,-50,45,,120,132.5,-137.5,132.5,,290,48,F,Ирина Татарова,1975,SBD,Single-ply,Open,4
Elena Bushueva,45.6,100,-105,105,105,60,62.5,65,65,,112.5,-120,,112.5,,282.5,48,F,Елена Бушуева,1972,SBD,Single-ply,Open,5
Olga Gladchenko,46.3,-90,90,-95,90,45,50,52.5,52.5,,-100,100,105,105,,247.5,48,F,Ольга Гладченко,,SBD,Single-ply,Open,6
Elena Petrunina,47.8,-85,-90,90,90,50,-55,-55,50,,102.5,105,,105,,245,48,F,Елена Петрунина,1976,SBD,Single-ply,Open,7
Mariya Danilova,46.5,82.5,-85,85,85,-50,,50,50,,100,-107.5,-107.5,100,,235,48,F,Мария Данилова,1978,SBD,Single-ply,Open,8
Elena Schekotova,46.8,50,55,-57.5,55,-32.5,-32.5,-32.5,,,,,,,,,48,F,Елена Щекотова,1962,SBD,Single-ply,Open,DQ
Oksana Yanovskaya,45.2,-90,-90,-90,,,,,,,,,,,,,48,F,Оксана Яновская,1973,SBD,Single-ply,Open,DQ
Oksana Belova,51.25,135,140,-145,140,-80,-80,80,80,,140,150,162.5,162.5,,382.5,52,F,Оксана Белова,1975,SBD,Single-ply,Open,1
Valentina Nelyubova,51.9,140,147.5,-155,147.5,90,-92.5,-92.5,90,,-145,145,,145,,382.5,52,F,Валентина Нелюбова,1966,SBD,Single-ply,Open,2
Olga Semenova,50.7,-130,130,140,140,65,-70,-70,65,,145,150,-155,150,,355,52,F,Ольга Семенова,1972,SBD,Single-ply,Open,3
Djamilya Fasakhova,49.55,110,-120,120,120,-72.5,-72.5,72.5,72.5,,120,130,,130,,322.5,52,F,Джамиля Фасахова,1968,SBD,Single-ply,Open,4
Irina Kleymenova,51.4,105,110,112.5,112.5,45,47.5,50,50,,102.5,107.5,110,110,,272.5,52,F,Ирина Клейменова,1979,SBD,Single-ply,Open,5
Natalya Valova,52,82.5,-90,90,90,50,55,57.5,57.5,,110,117.5,125,125,,272.5,52,F,Наталья Валова,1969,SBD,Single-ply,Open,6
Valeriya Bunova,50.9,-100,100,-102.5,100,45,47.5,-50,47.5,,95,100,102.5,102.5,,250,52,F,Валерия Бунова,1976,SBD,Single-ply,Open,7
Lyubov Pavlova,51.65,100,-105,-105,100,-60,,-60,,,,,,,,,52,F,Любовь Павлова,1970,SBD,Single-ply,Open,DQ
Svetlana Shipunova,51.7,-85,-85,-85,,,,,,,,,,,,,52,F,Светлана Шипунова,1977,SBD,Single-ply,Open,DQ
Elena Chernyshova,51.95,-110,-110,-115,,,,,,,,,,,,,52,F,Елена Чернышова,1968,SBD,Single-ply,Open,DQ
Valentina Morozova,52,-115,-115,-115,,,,,,,,,,,,,52,F,Валентина Морозова,1960,SBD,Single-ply,Open,DQ
Elena Fomina,56,-150,150,160,160,80,85,90,90,,145,155,-160,155,,405,56,F,Елена Фомина,1969,SBD,Single-ply,Open,1
Olga Kotelnikova,55.9,125,135,140,140,72.5,77.5,-80,77.5,,-110,110,127.5,127.5,,345,56,F,Ольга Котельникова,1977,SBD,Single-ply,Open,2
Olga Chernyaeva,55.2,115,125,130,130,62.5,67.5,-70,67.5,,130,142.5,145,145,,342.5,56,F,Ольга Черняева,1964,SBD,Single-ply,Open,3
Yelena Grigoryeva,55.1,-145,-145,145,145,60,-70,-70,60,,-120,120,135,135,,340,56,F,Елена Григорьева,1976,SBD,Single-ply,Open,4
Tatyana Atlashkina,55.3,135,140,-142.5,140,57.5,-60,60,60,,140,-150,-150,140,,340,56,F,Татьяна Атлашкина,1944,SBD,Single-ply,Open,5
Tatyana Trifonova,55.4,110,-120,-120,110,75,80,-82.5,80,,130,,,130,,320,56,F,Татьяна Трифонова,1966,SBD,Single-ply,Open,6
Natalya Yazeva,55.25,110,120,-122.5,120,65,-72.5,-72.5,65,,115,122.5,-125,122.5,,307.5,56,F,Наталья Язева,1977,SBD,Single-ply,Open,7
Taisiya Mikheeva,54.95,-120,-120,120,120,50,55,-60,55,,110,120,130,130,,305,56,F,Таисия Михеева,1971,SBD,Single-ply,Open,8
Elena Ilina,56,-115,115,125,125,55,-60,-60,55,,105,115,-125,115,,295,56,F,Елена Ильина,1977,SBD,Single-ply,Open,9
Tatyana Korobkova,55.9,-102.5,-105,105,105,-50,50,-55,50,,120,130,135,135,,290,56,F,Татьяна Коробкова,1975,SBD,Single-ply,Open,10
Yuliya Golovina,56,85,90,95,95,75,-80,80,80,,100,110,115,115,,290,56,F,Юлия Головина,1976,SBD,Single-ply,Open,11
Elena Bakhtina,56,100,110,-120,110,50,55,-57.5,55,,100,110,-120,110,,275,56,F,Елена Бахтина,1973,SBD,Single-ply,Open,12
Natalya Grineva,56,-110,110,-115,110,37.5,42.5,45,45,,115,-130,-130,115,,270,56,F,Наталья Гринева,1975,SBD,Single-ply,Open,13
Tatyana Popova,55.45,85,95,-105,95,55,-60,-60,55,,85,95,-102.5,95,,245,56,F,Татьяна Попова,1975,SBD,Single-ply,Open,14
Natalya Filippova,53.1,-75,-75,-75,,,,,,,,,,,,,56,F,Наталья Филиппова,1974,SBD,Single-ply,Open,DQ
Lyudmila Ivanova,59.4,155,-165,165,165,62.5,65,-67.5,65,,170,180,195,195,,425,60,F,Людмила Иванова,1965,SBD,Single-ply,Open,1
Olga Tkachenko,60,-160,160,170,170,80,85,-87.5,85,,160,170,-175,170,,425,60,F,Ольга Ткаченко,1975,SBD,Single-ply,Open,2
Tatyana Ushkova,59.2,140,145,-150,145,85,-90,,85,,150,-155,155,155,,385,60,F,Татьяна Ушкова,1965,SBD,Single-ply,Open,3
Valentina Zvyagina,59.7,-125,130,135,135,-80,85,-87.5,85,,135,142.5,145,145,,365,60,F,Валентина Звягина,1969,SBD,Single-ply,Open,4
Natalya Kashirina,57.8,115,-125,125,125,62.5,67.5,72.5,72.5,,145,-155,,145,,342.5,60,F,Наталья Каширина,1954,SBD,Single-ply,Open,5
Tatyana Kryazheva,59.5,130,-137.5,-137.5,130,75,-80,-80,75,,130,137.5,-142.5,137.5,,342.5,60,F,Татьяна Кряжева,1963,SBD,Single-ply,Open,6
Marina Borisova,60,120,125,130,130,-60,60,62.5,62.5,,130,135,-140,135,,327.5,60,F,Марина Борисова,1976,SBD,Single-ply,Open,7
Irina Pinina,57.65,100,-110,115,115,67.5,-72.5,72.5,72.5,,115,127.5,132.5,132.5,,320,60,F,Ирина Пинина,1963,SBD,Single-ply,Open,8
Olga Vasileva,58.6,102.5,107.5,115,115,60,65,67.5,67.5,,110,120,130,130,,312.5,60,F,Ольга Васильева,1979,SBD,Single-ply,Open,9
Natalya Savenkova,59.25,105,-110,-110,105,62.5,-65,-65,62.5,,125,-135,-135,125,,292.5,60,F,Наталья Савенкова,1967,SBD,Single-ply,Open,10
Tatyana Tsygankova,58.5,90,100,105,105,47.5,-52.5,,47.5,,110,-120,-120,110,,262.5,60,F,Татьяна Цыганкова,1966,SBD,Single-ply,Open,11
Ekaterina Tanokova,70,200,-210,210,210,100,110,112.5,112.5,,200,-210,210,210,,532.5,75,F,Екатерина Танокова,1964,SBD,Single-ply,Open,1
Natalya Zotova-Payusova,74.6,-175,180,-195,180,110,-120,120,120,,160,,,160,,460,75,F,Наталья Зотова-Паюсова,1975,SBD,Single-ply,Open,2
Marina Karpova,66,140,147.5,150,150,85,-92.5,-92.5,85,,145,155,-165,155,,390,67.5,F,Марина Карпова,1965,SBD,Single-ply,Open,1
Irina Lugovaya,73.8,137.5,-142.5,142.5,142.5,80,85,87.5,87.5,,142.5,150,160,160,,390,75,F,Ирина Луговая,1974,SBD,Single-ply,Open,3
Elena Naumova,74.5,140,145,152.5,152.5,70,-75,75,75,,140,145,-152.5,145,,372.5,75,F,Елена Наумова,1970,SBD,Single-ply,Open,4
Olga Mikhaylova,67,-130,-140,142.5,142.5,65,72.5,77.5,77.5,,130,140,145,145,,365,67.5,F,Ольга Михайлова,1976,SBD,Single-ply,Open,2
Nadezhda Efimova,75,130,-140,-140,130,75,85,-87.5,85,,140,-157.5,-157.5,140,,355,75,F,Надежда Ефимова,1980,SBD,Single-ply,Open,5
Irina Trufanova,66.5,110,-115,115,115,72.5,77.5,80,80,,140,150,155,155,,350,67.5,F,Ирина Труфанова,1962,SBD,Single-ply,Open,3
Evgeniya Fedortsova,67,117.5,125,130,130,52.5,57.5,-62.5,57.5,,120,130,135,135,,322.5,67.5,F,Евгения Федорцова,1973,SBD,Single-ply,Open,4
Tatyana Napidenina,67.5,,,,,-75,75,77.5,77.5,,,,,,,,67.5,F,Татьяна Напиденина,1974,SBD,Single-ply,Open,DQ
Alla Korshunova,82,170,185,195,195,90,92.5,95,95,,180,207.5,222.5,222.5,,512.5,82.5,F,Алла Коршунова,1968,SBD,Single-ply,Open,1
Elena Ignatenkova,76.95,180,195,205,205,102.5,110,-112.5,110,,165,180,195,195,,510,82.5,F,Елена Игнатенкова,1971,SBD,Single-ply,Open,2
Inna Smirnova #1,79.1,-115,115,125,125,80,-85,-85,80,,135,142.5,157.5,157.5,,362.5,82.5,F,Инна Смирнова,1955,SBD,Single-ply,Open,3
Elena Kashirina,78.5,110,120,130,130,67.5,75,80,80,,120,132.5,-150,132.5,,342.5,82.5,F,Елена Каширина,1962,SBD,Single-ply,Open,4
Svetlana Savina,82,,,,,120,125,130,130,,,,,,,,82.5,F,Светлана Савина,1959,SBD,Single-ply,Open,DQ
Svetlana Paltseva,85,125,135,145,145,90,92.5,95,95,,130,140,150,150,,390,90,F,Светлана Пальцева,1969,SBD,Single-ply,Open,1
Natalya Kuznetsova,93.4,120,-130,-130,120,60,65,-70,65,,-130,-130,,,,,90+,F,Наталья Кузнецова,1978,SBD,Single-ply,Open,DQ
