Place,Sex,Name,CyrillicName,BodyweightKg,Squat1Kg,Squat2Kg,Squat3Kg,Best3SquatKg,Squat4Kg,Bench1Kg,Bench2Kg,Bench3Kg,Best3BenchKg,Bench4Kg,Deadlift1Kg,Deadlift2Kg,Deadlift3Kg,Best3DeadliftKg,Deadlift4Kg,TotalKg,WeightClassKg,Event,Equipment,Tested,Division,Age,BirthDate
1,F,Zlata Pavlova,Злата Павлова,51,95,100,105,105,,52.5,-60,60,60,,92.5,102.5,-105,102.5,,267.5,52,SBD,Wraps,Yes,Open,17,2000-06-26
2,F,Marina Naplyokova,Марина Наплёкова,52,92.5,97.5,-105,97.5,,42.5,-47.5,-47.5,42.5,,100,107.5,115,115,,255,52,SBD,Wraps,Yes,Open,19,1998-10-16
3,F,Natalya Medenkova,Наталья Меденкова,51.4,-80,85,-95,85,,35,40,45,45,,80,90,95,95,,225,52,SBD,Wraps,Yes,Open,30,1987-10-25
1,F,Anna Tyurina,Анна Тюрина,63.7,-80,85,-90,85,,35,40,-42.5,40,,70,80,85,85,,210,67.5,SBD,Wraps,Yes,Open,28,1989-06-17
1,M,Aleksandr Ivanov,Александр Иванов,63.85,-160,160,-162.5,160,,100,-105,-105,100,,170,175,180,180,,440,67.5,SBD,Wraps,Yes,Open,30,1987-08-26
1,M,Zaza Otiashvili,Заза Отиашвили,73,-150,150,160,160,,100,110,120,120,,150,160,-170,160,,440,75,SBD,Wraps,Yes,Open,16,2001-05-16
1,M,Pavel Romashov,Павел Ромашов,77.9,195,-205,210,210,,130,137.5,145,145,,195,205,212.5,212.5,,567.5,82.5,SBD,Wraps,Yes,Open,29,1989-04-24
2,M,Sergey Samoylov,Сергей Самойлов,82.1,170,180,,180,,130,140,145,145,,170,180,,180,,505,82.5,SBD,Wraps,Yes,Open,27,1990-05-14
3,M,Oleg Yakimov,Олег Якимов,81.4,165,172.5,177.5,177.5,,107.5,112.5,115,115,,175,185,190,190,,482.5,82.5,SBD,Wraps,Yes,Open,29,1989-04-04
4,M,Andrey Nikiforov,Андрей Никифоров,80.05,160,170,-175,170,,105,-110,110,110,,150,160,165,165,,445,82.5,SBD,Wraps,Yes,Open,34,1983-11-05
1,M,Ivan Ivanov #5,Иван Иванов,89.6,210,220,230,230,,160,167.5,-175,167.5,,210,220,-230,220,,617.5,90,SBD,Wraps,Yes,Open,31,1987-04-20
2,M,Farkhod Imomnazarov,Фарход Имомназаров,86.3,170,-190,-200,170,,130,140,150,150,,150,175,185,185,,505,90,SBD,Wraps,Yes,Open,30,1987-08-13
3,M,Viktor Tselousov,Виктор Целоусов,85.1,150,160,170,170,,100,110,120,120,,150,160,170,170,,460,90,SBD,Wraps,Yes,Open,33,1984-11-22
1,M,Pavel Nikiforov,Павел Никифоров,96.15,240,250,260,260,,160,170,-175,170,,245,260,265,265,,695,100,SBD,Wraps,Yes,Open,32,1985-10-07
2,M,Pavel Spiridonov,Павел Спиридонов,97.5,200,210,220,220,,145,155,162.5,162.5,,210,220,225,225,,607.5,100,SBD,Wraps,Yes,Open,34,1983-10-22
3,M,Evgeniy Zhiltsov,Евгений Жильцов,96.95,185,200,210,210,,155,165,170,170,,200,215,225,225,,605,100,SBD,Wraps,Yes,Open,31,1986-11-14
4,M,Aleksandr Stepanov,Александр Степанов,97.75,190,200,-207.5,200,,-125,125,,125,,180,190,-200,190,,515,100,SBD,Wraps,Yes,Open,31,1987-04-20
1,M,Nikolay Zabelin,Николай Забелин,102.5,210,220,225,225,,155,160,162.5,162.5,,240,250,-260,250,,637.5,110,SBD,Wraps,Yes,Open,32,1985-05-23
2,M,Pavel Ozerov,Павел Озеров,105.7,215,230,-240,230,,160,165,-170,165,,190,200,-210,200,,595,110,SBD,Wraps,Yes,Open,24,1993-06-19
1,F,Ekaterina Shumilova,Екатерина Шумилова,55.7,100,-110,110,110,,65,70,-75,70,,120,135,,135,,315,56,SBD,Wraps,No,Open,26,1991-11-06
1,M,Roman Khalmetov,Роман Хальметов,73.1,175,190,200,200,,105,112.5,117.5,117.5,,175,185,-200,185,,502.5,75,SBD,Wraps,No,Open,24,1994-02-02
1,M,Aleksey Krapivnitskiy,Алексей Крапивницкий,81.4,175,185,-195,185,,115,135,140,140,,175,185,-195,185,,510,82.5,SBD,Wraps,No,Open,36,1981-05-20
1,M,Yuriy Dmitriev,Юрий Дмитриев,89.9,195,210,-220,210,,160,167.5,,167.5,,205,212.5,220,220,,597.5,90,SBD,Wraps,No,Open,31,1986-06-26
2,M,Dmitriy Melikhov,Дмитрий Мелихов,89.1,-200,200,210,210,,140,147.5,-152.5,147.5,,215,230,-240,230,,587.5,90,SBD,Wraps,No,Open,38,1979-09-19
1,M,Gennadiy Postanogov,Геннадий Постаногов,97.9,220,230,240,240,,165,-175,-175,165,,240,-260,-260,240,,645,100,SBD,Wraps,No,Open,34,1984-04-26
2,M,Roman Levchuk,Роман Левчук,99.8,-230,245,-260,245,,125,132.5,140,140,,260,-280,-302.5,260,,645,100,SBD,Wraps,No,Open,29,1988-10-11
3,M,Aleksey Veresov,Алексей Вересов,97.5,205,215,-230,215,,162.5,170,177.5,177.5,,200,215,-227.5,215,,607.5,100,SBD,Wraps,No,Open,24,1994-03-08
4,M,Sergey Romanov,Сергей Романов,99.5,180,190,,190,,150,160,-170,160,,240,-260,,240,,590,100,SBD,Wraps,No,Open,33,1984-09-18
5,M,Andrey Ivanov,Андрей Иванов,93.8,-200,200,-220,200,,100,-120,-120,100,,200,-205,,200,,500,100,SBD,Wraps,No,Open,47,1971-01-14
1,M,Denis Sapozhkov,Денис Сапожков,108,215,-225,,215,,130,140,150,150,,215,230,245,245,,610,110,SBD,Wraps,No,Open,39,1979-02-06
1,F,Anzhelika Artamonova,Анжелика Артамонова,55.9,,,,,,60,62.5,-65,62.5,,,,,,,62.5,56,B,Raw,Yes,Open,32,1986-02-20
2,F,Svetlana Anishenkova,Светлана Анишенкова,52.1,,,,,,47.5,-50,-52.5,47.5,,,,,,,47.5,56,B,Raw,Yes,Open,12,2005-06-10
1,F,Ekaterina Muslyadinova,Екатерина Муслядинова,59.9,,,,,,60,-67.5,-67.5,60,,,,,,,60,60,B,Raw,Yes,Open,26,1991-12-11
1,M,Levon Grigoryan,Левон Григорян,59.6,,,,,,102.5,112.5,-115,112.5,,,,,,,112.5,60,B,Raw,Yes,Open,25,1992-12-07
1,M,Aleksandr Ivanov,Александр Иванов,63.9,,,,,,100,-105,-105,100,,,,,,,100,67.5,B,Raw,Yes,Open,30,1987-08-26
2,M,Maksim Manushin,Максим Манушин,65.45,,,,,,55,62.5,-75,62.5,,,,,,,62.5,67.5,B,Raw,Yes,Open,14,2003-11-11
1,M,Maksim Ozhegov,Максим Ожегов,74,,,,,,120,127.5,130,130,,,,,,,130,75,B,Raw,Yes,Open,35,1983-04-03
DQ,M,Sergey Sadikov,Сергей Садиков,73.6,,,,,,-110,-117.5,-117.5,,,,,,,,,75,B,Raw,Yes,Open,37,1981-02-03
1,M,Igor Moiseenkov,Игорь Моисеенков,80.2,,,,,,-140,145,-150,145,,,,,,,145,82.5,B,Raw,Yes,Open,34,1984-05-04
2,M,Pavel Mochalov,Павел Мочалов,81.3,,,,,,135,145,-150,145,,,,,,,145,82.5,B,Raw,Yes,Open,37,1981-02-28
3,M,Kirill Safronov,Кирилл Сафронов,82.5,,,,,,125,-135,-135,125,,,,,,,125,82.5,B,Raw,Yes,Open,22,1995-11-03
4,M,Igor Minkach,Игорь Минькач,81.7,,,,,,112.5,-117.5,-117.5,112.5,,,,,,,112.5,82.5,B,Raw,Yes,Open,28,1989-11-05
DQ,M,Daniil Markin,Даниил Маркин,78.6,,,,,,-122.5,-122.5,-122.5,,,,,,,,,82.5,B,Raw,Yes,Open,18,2000-03-30
1,M,Yuriy Fursov,Юрий Фурсов,78,,,,,,100,127.5,-130,127.5,,,,,,,127.5,82.5,B,Raw,Yes,Masters 40-44,40,1977-09-14
1,M,Ivan Ivanov #5,Иван Иванов,89.6,,,,,,160,167.5,-175,167.5,,,,,,,167.5,90,B,Raw,Yes,Open,31,1987-04-20
2,M,Sergey Oleshko,Сергей Олешко,89.05,,,,,,140,150,-152.5,150,,,,,,,150,90,B,Raw,Yes,Open,30,1987-09-17
3,M,Artem Osmanov,Артем Османов,89.3,,,,,,142.5,147.5,-152.5,147.5,,,,,,,147.5,90,B,Raw,Yes,Open,27,1991-03-23
4,M,Aleksandr Gorshkov,Александр Горшков,87.9,,,,,,120,135,-152.5,135,,,,,,,135,90,B,Raw,Yes,Open,34,1983-12-22
5,M,Andrey Popov,Андрей Попов,84.9,,,,,,132.5,-137.5,-142.5,132.5,,,,,,,132.5,90,B,Raw,Yes,Open,26,1992-02-19
6,M,Stanislav Pshenichnyy,Станислав Пшеничный,87.4,,,,,,132.5,-137.5,-137.5,132.5,,,,,,,132.5,90,B,Raw,Yes,Open,26,1992-05-01
1,M,Yuriy Alifanov,Юрий Алифанов,87.4,,,,,,-120,132.5,140,140,,,,,,,140,90,B,Raw,Yes,Masters 45-49,48,1969-09-23
1,M,Grigoriy Berezin,Григорий Березин,93.5,,,,,,162.5,167.5,175,175,,,,,,,175,100,B,Raw,Yes,Open,27,1991-03-08
2,M,Sergey Emelyanov,Сергей Емельянов,97.75,,,,,,160,-165,165,165,,,,,,,165,100,B,Raw,Yes,Open,43,1975-04-07
3,M,Pavel Spiridonov,Павел Спиридонов,97.5,,,,,,145,155,162.5,162.5,,,,,,,162.5,100,B,Raw,Yes,Open,34,1983-10-22
4,M,Artyom Erokhin,Артём Ерохин,92.9,,,,,,145,-155,-155,145,,,,,,,145,100,B,Raw,Yes,Open,28,1989-12-16
5,M,Dmitriy Ufimtsev,Дмитрий Уфимцев,95.1,,,,,,120,-125,-125,120,,,,,,,120,100,B,Raw,Yes,Open,32,1986-03-18
1,M,Sergey Emelyanov,Сергей Емельянов,97.75,,,,,,160,-165,165,165,,,,,,,165,100,B,Raw,Yes,Masters 40-44,43,1975-04-07
1,M,Alexey Sorokin,Алексей Сорокин,96.5,,,,,,-130,130,-140,130,,,,,,,130,100,B,Raw,Yes,Masters 55-59,59,1959-02-14
1,M,Dmitriy Karelin,Дмитрий Карелин,106.95,,,,,,175,-185,-185,175,,,,,,,175,110,B,Raw,Yes,Open,29,1988-06-08
2,M,Pavel Ozerov,Павел Озеров,105.7,,,,,,160,165,-170,165,,,,,,,165,110,B,Raw,Yes,Open,24,1993-06-19
3,M,Sergey Vasilev,Сергей Васильев,106.35,,,,,,145,-150,-150,145,,,,,,,145,110,B,Raw,Yes,Open,38,1979-07-12
1,F,Svetlana Anishenkova,Светлана Анишенкова,52.1,,,,,,47.5,-50,-52.5,47.5,,,,,,,47.5,56,B,Raw,No,Open,12,2005-06-10
1,F,Yana Sikorskaya,Яна Сикорская,59.2,,,,,,-55,55,-62.5,55,,,,,,,55,60,B,Raw,No,Open,17,2000-09-24
1,F,Kristina Lyashenko,Кристина Ляшенко,64.25,,,,,,-72.5,72.5,-75,72.5,,,,,,,72.5,67.5,B,Raw,No,Open,25,1992-06-04
DQ,M,Anton Egorov,Антон Егоров,71.5,,,,,,-130,-130,-130,,,,,,,,,75,B,Raw,No,Open,28,1990-04-15
DQ,M,Andrey Bannyy,Андрей Банный,73.9,,,,,,-170,-170,-170,,,,,,,,,75,B,Raw,No,Open,32,1986-01-11
1,M,Ilya Kutsurov,Илья Куцуров,81.4,,,,,,170,180,-190,180,,,,,,,180,82.5,B,Raw,No,Open,40,1977-05-12
DQ,M,Aleksey Solovyev #3,Алексей Соловьев,80.85,,,,,,-140,-140,,,,,,,,,,82.5,B,Raw,No,Open,38,1980-05-05
1,M,Ilya Brusov,Илья Брусов,88.1,,,,,,180,-185,185,185,,,,,,,185,90,B,Raw,No,Open,30,1987-07-17
2,M,Nikolay Izotov,Николай Изотов,87.1,,,,,,125,130,-135,130,,,,,,,130,90,B,Raw,No,Open,28,1990-04-15
1,M,Denis Yakovlev,Денис Яковлев,97.9,,,,,,185,-190,,185,,,,,,,185,100,B,Raw,No,Open,39,1978-10-06
2,M,Dmitriy Lepekhov,Дмитрий Лепехов,98.8,,,,,,185,-190,-190,185,,,,,,,185,100,B,Raw,No,Open,29,1989-01-10
3,M,Aleksey Veresov,Алексей Вересов,97.5,,,,,,162.5,170,177.5,177.5,,,,,,,177.5,100,B,Raw,No,Open,24,1994-03-08
1,M,Nodar Tsutskiridze,Нодар Цуцкиридзе,100,,,,,,167.5,172.5,175,175,,,,,,,175,100,B,Raw,No,Masters 40-44,41,1976-09-14
1,M,Maksim Bystrov,Максим Быстров,107.2,,,,,,180,192.5,200,200,,,,,,,200,110,B,Raw,No,Open,37,1981-02-21
2,M,Dmitriy Tsymbalov,Дмитрий Цымбалов,104.2,,,,,,185,192.5,,192.5,,,,,,,192.5,110,B,Raw,No,Open,38,1979-08-05
3,M,Dmitriy Ageev,Дмитрий Агеев,107.1,,,,,,160,167.5,175,175,,,,,,,175,110,B,Raw,No,Open,29,1989-01-30
DQ,M,Maksim Veselov,Максим Веселов,103.9,,,,,,-150,-160,-167.5,,,,,,,,,110,B,Raw,No,Open,36,1981-08-10
1,M,Dmitriy Lavrov,Дмитрий Лавров,108.2,,,,,,170,180,-192.5,180,,,,,,,180,110,B,Raw,No,Masters 40-44,41,1977-04-17
1,M,Aleksey Finogenov,Алексей Финогенов,112.1,,,,,,200,205,-207.5,205,,,,,,,205,125,B,Raw,No,Open,36,1981-07-12
1,M,Dmitriy Dmitriev,Дмитрий Дмитриев,138.6,,,,,,200,-210,-210,200,,,,,,,200,140,B,Raw,No,Open,34,1983-11-17
1,M,Vladimir Popov,Владимир Попов,123.65,,,,,,190,200,-210,200,,,,,,,200,125,B,Raw,Yes,Open,62,1956-02-26
1,M,Aleksandr Matveev,Александр Матвеев,74.9,,,,,,152.5,160,-165,160,,,,,,,160,75,B,Raw,No,Open,23,1994-11-17
1,M,Grigoriy Bakhvalov,Григорий Бахвалов,79.3,,,,,,-190,190,195,195,,,,,,,195,82.5,B,Raw,No,Open,24,1993-07-27
1,M,Nikolay Emtsev,Николай Емцев,104.3,,,,,,160,-170,170,170,,,,,,,170,110,B,Raw,No,Masters 50-54,50,1967-05-23
1,F,Elena Kiseleva,Елена Киселева,66.5,,,,,,,,,,,110,120,-122.5,120,,120,67.5,D,Raw,Yes,Open,36,1981-11-27
1,M,Aleksandr Ivanov,Александр Иванов,63.9,,,,,,,,,,,170,175,180,180,,180,67.5,D,Raw,Yes,Open,30,1987-08-26
1,M,Oleg Yakimov,Олег Якимов,81.4,,,,,,,,,,,175,185,190,190,,190,82.5,D,Raw,Yes,Open,29,1989-04-04
1,M,Dmitriy Drozdov,Дмитрий Дроздов,87.2,,,,,,,,,,,180,202.5,-212.5,202.5,,202.5,90,D,Raw,Yes,Open,37,1980-09-24
2,M,Denis Rybakov,Денис Рыбаков,86.6,,,,,,,,,,,170,180,190,190,,190,90,D,Raw,Yes,Open,17,2000-07-09
1,M,Pavel Nikiforov,Павел Никифоров,96.15,,,,,,,,,,,245,260,265,265,,265,100,D,Raw,Yes,Open,32,1985-10-07
2,M,Pavel Spiridonov,Павел Спиридонов,97.5,,,,,,,,,,,210,220,225,225,,225,100,D,Raw,Yes,Open,34,1983-10-22
DQ,M,Vladimir Luzin,Владимир Лузин,95.5,,,,,,,,,,,-180,-210,,,,,100,D,Raw,Yes,Open,30,1987-10-27
DD,M,Mikhail Checherin,Михаил Чечерин,107,,,,,,,,,,,255,267.5,-275,267.5,,,110,D,Raw,Yes,Open,30,1987-09-08
1,M,Nikolay Zabelin,Николай Забелин,102.5,,,,,,,,,,,240,250,-260,250,,250,110,D,Raw,Yes,Open,32,1985-05-23
1,M,Kirill Ganin,Кирилл Ганин,111.5,,,,,,,,,,,210,225,-240,225,,225,125,D,Raw,Yes,Open,32,1985-07-02
1,F,Faina Nikitina,Фаина Никитина,77.5,,,,,,,,,,,117.5,120,-125,120,,120,82.5,D,Raw,No,Open,34,1983-08-14
1,M,Roman Levchuk,Роман Левчук,99.8,,,,,,,,,,,260,-280,-302.5,260,,260,100,D,Raw,No,Open,29,1988-10-11
1,M,Dmitriy Ageev,Дмитрий Агеев,107.1,,,,,,,,,,,230,252.5,,252.5,,252.5,110,D,Raw,No,Open,29,1989-01-30
DQ,M,Sergey Simakov,Сергей Симаков,110,,,,,,,,,,,-275,,,,,,110,D,Raw,No,Open,33,1984-07-21
