Place,Name,Event,Equipment,Division,Tested,Sex,Country,Age,WeightClassKg,BodyweightKg,Squat1Kg,Squat2Kg,Squat3Kg,Best3SquatKg,Squat4Kg,Bench1Kg,Bench2Kg,Bench3Kg,Best3BenchKg,Bench4Kg,Deadlift1Kg,Deadlift2Kg,Deadlift3Kg,Best3DeadliftKg,Deadlift4Kg,TotalKg
1,Rafał Gromowski,SBD,Wraps,Amateur Teen 13-15,Yes,M,Poland,13,82.5,79.7,110,117.5,127.5,127.5,,72.5,77.5,82.5,82.5,,117.5,127.5,135,135,,345
1,Radosław Wąs,SBD,Wraps,Amateur Teen 13-15,Yes,M,Poland,15,110,102.5,150,160,175,175,,95,100,105,105,,195,205,210,210,,490.00
1,Wojciech Szczygieł,SBD,Wraps,Amateur Teen 18-19,Yes,M,Poland,19,90,86.9,190,200,-210,200,,115,-125,-125,115,,210,-225,-242.5,210,,525
1,Gabriele Daidone,SBD,Wraps,Amateur Juniors 20-23,Yes,M,Italy,22,67.5,66.5,145,155,-157.5,155,,115,-120,-120,115,,195,215,220,220,,490
2,Kamil Olewicz,SBD,Wraps,Amateur Juniors 20-23,Yes,M,Poland,23,67.5,64,170,180,,180,,105,-112.5,-112.5,105,,200,-207.5,-212.5,200,,485
1,Jakub Harasim,SBD,Wraps,Amateur Juniors 20-23,Yes,M,Poland,20,75,72.7,155,165,-180,165,,85,92.5,-100,92.5,,140,150,162.5,162.5,,420
1,Damian Aniołek,SBD,Wraps,Amateur Juniors 20-23,Yes,M,Poland,20,82.5,78.8,180,200,-210,200,,125,132.5,-137.5,132.5,,180,195,-210,195,,527.5
2,Przemysław Kawczyński,SBD,Wraps,Amateur Juniors 20-23,Yes,M,Poland,23,82.5,82.3,-170,170,185,185,,100,-107.5,-107.5,100,,200,217.5,-222.5,217.5,,502.5
1,Norbert Radzio,SBD,Wraps,Amateur Juniors 20-23,Yes,M,Poland,20,90,87.4,220,-230,-230,220,,125,130,-135,130,,230,-240,-240,230,,580
2,Bartolomiej Papis,SBD,Wraps,Amateur Juniors 20-23,Yes,M,Poland,22,90,90,145,155,-170,155,,115,122.5,-125,122.5,,-160,160,-185,160,,437.5
1,Piotr Popko,SBD,Wraps,Amateur Juniors 20-23,Yes,M,Poland,22,100,92.7,160,170,180,180,,130,-135,-135,130,,180,195,-205,195,,505
1,Arkadiusz Szmuc,SBD,Wraps,Amateur Juniors 20-23,Yes,M,Poland,22,110,105.3,220,-230,230,230,,150,160,170,170,,240,250,260,260,,660
2,Jakub Dylewski,SBD,Wraps,Amateur Juniors 20-23,Yes,M,Poland,20,110,107.7,-210,-222.5,230,230,,130,140,-150,140,,235,-245,245,245,,615
3,Adrian Prietz,SBD,Wraps,Amateur Juniors 20-23,Yes,M,Poland,21,110,101.8,-170,182.5,-200,182.5,,130,140,-150,140,,200,215,-230,215,,537.5
4,Dawid Mielewczyk,SBD,Wraps,Amateur Juniors 20-23,Yes,M,Poland,21,110,104,170,177.5,-185,177.5,,132.5,137.5,-140,137.5,,-210,210,-217.5,210,,525
1,Piotr Gaj,SBD,Wraps,Amateur Juniors 20-23,Yes,M,Poland,24,140,127,-250,-250,250,250,,147.5,-152.5,-152.5,147.5,,280,-290,-290,280,,677.5
1,Jakub Lemański,SBD,Wraps,Amateur Open,Yes,M,Poland,25,67.5,67.4,160,-170,170,170,,105,-110,-110,105,,-200,200,-220,200,,475
1,Tomasz Miloch,SBD,Wraps,Amateur Open,Yes,M,Poland,34,82.5,79,215,-225,-225,215,,135,140,-145,140,,235,245,250,250,,605
2,Adam Plumbaum,SBD,Wraps,Amateur Open,Yes,M,Poland,29,82.5,82.1,155,162.5,167.5,167.5,,110,115,120,120,,185,195,-202.5,195,,482.5
1,Damian Kupiec,SBD,Wraps,Amateur Open,Yes,M,Poland,25,90,89.2,-200,207.5,215,215,,115,122.5,125,125,,240,250,260,260,,600
2,Michał Maciak,SBD,Wraps,Amateur Open,Yes,M,Poland,25,90,88.3,200,217.5,-230,217.5,,115,125,-130,125,,200,220,-240,220,,562.5
3,Davit Arakelyan,SBD,Wraps,Amateur Open,Yes,M,Armenia,28,90,89.4,190,205,210,210,,125,-132.5,-132.5,125,,-195,205,-210,205,,540
4,Michał Michajłowski,SBD,Wraps,Amateur Open,Yes,M,Poland,25,90,87.9,-160,160,170,170,,140,-145,-145,140,,200,-205,-205,200,,510
5,Łukasz Scisłowski,SBD,Wraps,Amateur Open,Yes,M,Poland,26,90,85.9,125,132.5,140,140,,97.5,105,112.5,112.5,,150,160,170,170,,422.5
1,Mariusz Snarski,SBD,Wraps,Amateur Open,Yes,M,Poland,33,100,100,250,270,280,280,,160,172.5,180,180,,260,275,285,285,,745
2,Michał Marciniak,SBD,Wraps,Amateur Open,Yes,M,Poland,27,100,97.7,220,235,250,250,,175,180,185,185,,250,265,-280,265,,700
3,Hrach Guloyan,SBD,Wraps,Amateur Open,Yes,M,Armenia,24,100,96.8,240,270,-282.5,270,,140,155,-165,155,,-270,-270,270,270,,695
4,Karol Frąckowiak,SBD,Wraps,Amateur Open,Yes,M,Poland,25,100,98.1,230,260,-280,260,,140,150,-152.5,150,,260,275,-285,275,,685
5,Nshan Malkhasyan,SBD,Wraps,Amateur Open,Yes,M,Armenia,26,100,96.2,220,-240,-240,220,,-140,160,-170,160,,280,-300,-300,280,,660
6,Oleksandr Lisovskiy #1,SBD,Wraps,Amateur Open,Yes,M,Ukraine,27,100,94.5,220,237.5,-250,237.5,,145,152.5,157.5,157.5,,-260,260,-275,260,,655
7,Miłosz Materek,SBD,Wraps,Amateur Open,Yes,M,Poland,26,100,95.6,205,215,-227.5,215,,110,122.5,-135,122.5,,200,-210,-215,200,,537.5
8,Filip Znojek,SBD,Wraps,Amateur Open,Yes,M,Poland,27,100,96.1,150,160,170,170,,90,100,-110,100,,-180,190,215,215,,485
1,Phillip Carr,SBD,Wraps,Amateur Open,Yes,M,USA,28,110,107.9,215,-227.5,-227.5,215,,167.5,175,-180,175,,235,242.5,250,250,,640
1,Ararat Loretsyan,SBD,Wraps,Amateur Open,Yes,M,Armenia,28,125,114.5,-220,220,-230,220,,150,162.5,167.5,167.5,,220,247.5,-262.5,247.5,,635
1,Mateusz Skrzat,SBD,Wraps,Amateur Open,Yes,M,Poland,25,140,127.5,210,217.5,222.5,222.5,,160,167.5,172.5,172.5,,215,227.5,232.5,232.5,,627.50
1,Tomasz Miloch,SBD,Wraps,Amateur Submasters 33-39,Yes,M,Poland,34,82.5,79,215,-225,-225,215,,135,140,-145,140,,235,245,250,250,,605
2,Piotr Gawle,SBD,Wraps,Amateur Submasters 33-39,Yes,M,Poland,35,82.5,80.5,140,-150,-150,140,,100,-105,-105,100,,-170,177.5,190,190,,430
1,Marek Makarewicz,SBD,Wraps,Amateur Submasters 33-39,Yes,M,Poland,38,140,127.6,200,230,250,250,,-210,220,-225,220,,260,280,-300,280,,750.00
2,Krzystof Grzeskowiak,SBD,Wraps,Amateur Submasters 33-39,Yes,M,Denmark,36,140,138,220,232.5,-245,232.5,,120,130,140,140,,220,240,255,255,,627.50
1,Michael Dehner,SBD,Wraps,Amateur Masters 45-49,Yes,M,USA,49,90,83.3,227.5,235,240,240,,130,135,-137.5,135,,220,227.5,232.5,232.5,,607.50
1,Andrzej Stasiak,SBD,Wraps,Amateur Masters 50-54,Yes,M,Poland,52,82.5,80.8,130,140,-150,140,,110,115,120,120,,185,195,-200,195,,455
1,Mariusz Rufkiewicz,SBD,Wraps,Amateur Masters 50-54,Yes,M,Poland,50,110,100.5,200,215,232.5,232.5,,140,152.5,160,160,,200,220,235,235,242.5,627.50
1,Stefan Sochaňski,SBD,Wraps,Amateur Masters 65-69,Yes,M,Poland,69,100,90.2,-167.5,167.5,-180,167.5,,90,95,-100,95,,185,205,212.5,212.5,,475
1,Kazimierz Jasiński,SBD,Wraps,Amateur Masters 70-74,Yes,M,Poland,70,90,85.9,130,-140,145,145,,-85,85,87.5,87.5,,180,185,190,190,,422.50
1,Przemysław Kawczyński,SBD,Wraps,Amateur Military/Fire/Police,Yes,M,Poland,23,82.5,82.3,-170,170,185,185,,100,-107.5,-107.5,100,,200,217.5,-222.5,217.5,,502.5
1,Michael Dehner,SBD,Wraps,Amateur Military/Fire/Police,Yes,M,USA,49,90,83.3,227.5,235,240,240,,130,135,-137.5,135,,220,227.5,232.5,232.5,,607.50
1,Mariusz Snarski,SBD,Wraps,Amateur Military/Fire/Police,Yes,M,Poland,33,100,100,250,270,280,280,,160,172.5,180,180,,260,275,285,285,,745.00
1,Phillip Carr,SBD,Wraps,Amateur Military/Fire/Police,Yes,M,USA,28,110,107.9,215,-227.5,-227.5,215,,167.5,175,-180,175,,235,242.5,250,250,,640.00
1,Katarzyna Czubek,SBD,Wraps,Amateur Teen 13-15,Yes,F,Poland,15,82.5,79.2,107.5,112.5,117.5,117.5,,37.5,40,-42.5,40,,105,112.5,120,120,,277.5
1,Kasandra Patelczyk,SBD,Wraps,Amateur Teen 16-17,Yes,F,Poland,17,56,53.5,92.5,97.5,102.5,102.5,,52.5,-57.5,-57.5,52.5,,105,-115,115,115,,270.00
1,Anna Syvokobylska,SBD,Wraps,Amateur Teen 18-19,Yes,F,Ukraine,19,60,59.1,115,130,135,135,,52.5,57.5,60,60,,100,-115,-115,100,,295.00
1,Marcelina Szumera,SBD,Wraps,Amateur Open,Yes,F,Poland,26,67.5,65.6,105,115,130,130,,45,52.5,57.5,57.5,,100,115,-130,115,,302.5
1,Ewa Skorupińska,SBD,Wraps,Amateur Open,Yes,F,Poland,24,75,69.3,-80,80,-90,80,,35,-40,-40,35,,100,110,120,120,,235
1,Karolina Koszela,SBD,Wraps,Amateur Open,Yes,F,Poland,37,90,86.3,130,155,170,170,,60,-75,-85,60,,130,155,190,190,,420.00
1,Luiza Szymańska,SBD,Wraps,Amateur Submasters 33-39,Yes,F,Poland,33,60,59.9,90,105,-110,105,,50,55,-60,55,,100,-110,117.5,117.5,-118,277.5
1,Igor Lyubaev,SBD,Multi-ply,Amateur Open,Yes,M,Russia,38,67.5,66.2,220,240,-260,240,,130,135,140,140,,220,240,245,245,,625.00
1,Oleksandr Mushynskyi,SBD,Multi-ply,Amateur Open,Yes,M,Ukraine,24,82.5,81.4,195,210,220,220,,130,135,140,140,,210,225,-240,225,,585
1,Mariusz Snarski,SBD,Multi-ply,Amateur Open,Yes,M,Poland,33,100,100,250,270,280,280,,160,172.5,180,180,,260,275,285,285,,745
1,Stefan Sochaňski,SBD,Multi-ply,Amateur Masters 65-69,Yes,M,Poland,69,100,90.2,205,-225,225,225,,-100,100,120,120,,210,230,245,245,,590
1,Mariusz Snarski,SBD,Multi-ply,Amateur Military/Fire/Police,Yes,M,Poland,33,100,100,250,270,280,280,,160,172.5,180,180,,260,275,285,285,,745
1,Volodymyr Galyga,B,Raw,Amateur Sub-Teen 11-12,Yes,M,Ukraine,12,48,46.3,,,,,,30,32.5,-35,32.5,,,,,,,32.5
1,Bogdan Sukhovarov,B,Raw,Amateur Teen 13-15,Yes,M,Ukraine,14,52,51.8,,,,,,25,30,-40,30,,,,,,,30
1,Norik Karapetyan,B,Raw,Amateur Teen 13-15,Yes,M,Armenia,14,56,54.2,,,,,,45,55,60,60,,,,,,,60
1,Radosław Wąs,B,Raw,Amateur Teen 13-15,Yes,M,Poland,15,110,102.5,,,,,,95,100,105,105,,,,,,,105
1,Adrian Sadło,B,Raw,Amateur Teen 18-19,Yes,M,Poland,19,82.5,82.2,,,,,,162.5,170.5,-172.5,170.5,,,,,,,170.5
2,Ivan Messina,B,Raw,Amateur Teen 18-19,Yes,M,Italy,19,82.5,78.7,,,,,,117.5,122.5,125,125,,,,,,,125
1,Grzegorz Strambowski,B,Raw,Amateur Teen 18-19,Yes,M,Poland,19,100,92.6,,,,,,145,157.5,-165,157.5,,,,,,,157.5
1,Zakar Mkhitaryan,B,Raw,Amateur Juniors 20-23,Yes,M,Armenia,20,60,57.9,,,,,,60,-70,70,70,,,,,,,70
1,Petro Kalynovskyy,B,Raw,Amateur Juniors 20-23,Yes,M,Ukraine,21,67.5,66.8,,,,,,115,125,-130,125,,,,,,,125
2,Kamil Olewicz,B,Raw,Amateur Juniors 20-23,Yes,M,Poland,23,67.5,64,,,,,,105,-112.5,-112.5,105,,,,,,,105
1,Kamil Szaramowicz,B,Raw,Amateur Juniors 20-23,Yes,M,Poland,23,75,72.8,,,,,,130,137.5,-140,137.5,,,,,,,137.5
1,Szymon Grzybowski,B,Raw,Amateur Juniors 20-23,Yes,M,Poland,23,90,89.6,,,,,,160,170,180,180,,,,,,,180
1,Arkadiusz Szmuc,B,Raw,Amateur Juniors 20-23,Yes,M,Poland,22,110,105.3,,,,,,150,160,170,170,,,,,,,170
2,Dawid Mielewczyk,B,Raw,Amateur Juniors 20-23,Yes,M,Poland,21,110,104,,,,,,132.5,137.5,-140,137.5,,,,,,,137.5
1,Sergey Perevalov,B,Raw,Amateur Open,Yes,M,Russia,36,67.5,67.1,,,,,,140,145,-150,145,,,,,,,145
2,Sergii Melnyk,B,Raw,Amateur Open,Yes,M,Ukraine,35,67.5,66.9,,,,,,-135,140,-145,140,,,,,,,140
3,Andrea Di Trio,B,Raw,Amateur Open,Yes,M,Italy,24,67.5,64.9,,,,,,105,112.5,-120,112.5,,,,,,,112.5
1,Marcin Dulko,B,Raw,Amateur Open,Yes,M,Poland,24,75,74.4,,,,,,170,175,,175,,,,,,,175
2,Damian Gordon,B,Raw,Amateur Open,Yes,M,Poland,27,75,75,,,,,,145,155,-157.5,155,,,,,,,155
3,Kamil Szaramowicz,B,Raw,Amateur Open,Yes,M,Poland,23,75,72.8,,,,,,130,137.5,-140,137.5,,,,,,,137.5
1,Łukasz Zalewski,B,Raw,Amateur Open,Yes,M,Poland,31,82.5,80.8,,,,,,160,167.5,170,170,,,,,,,170
2,Łukasz Żulczyk,B,Raw,Amateur Open,Yes,M,Poland,30,82.5,77.1,,,,,,150,157.5,-160,157.5,,,,,,,157.5
3,Oleksandr Klymenko,B,Raw,Amateur Open,Yes,M,Ukraine,27,82.5,80.1,,,,,,142.5,147.5,152.5,152.5,,,,,,,152.5
4,Mariusz Wlazło,B,Raw,Amateur Open,Yes,M,Poland,28,82.5,82.4,,,,,,130,-135,-137.5,130,,,,,,,130
5,Daniel Nierodkiewicz,B,Raw,Amateur Open,Yes,M,Poland,25,82.5,77.4,,,,,,112.5,117.5,120,120,,,,,,,120
1,Michał Kocknecht,B,Raw,Amateur Open,Yes,M,Poland,30,90,85.3,,,,,,165,170,172.5,172.5,,,,,,,172.5
2,Radosław Brzoza,B,Raw,Amateur Open,Yes,M,Poland,31,90,89,,,,,,165,-170,170,170,,,,,,,170
3,Łukasz Slosarek,B,Raw,Amateur Open,Yes,M,Poland,30,90,88.7,,,,,,150,165,-172.5,165,,,,,,,165
4,Bartosz Żabiński,B,Raw,Amateur Open,Yes,M,Poland,26,90,86.9,,,,,,145,155,160,160,,,,,,,160
5,Michał Michajłowski,B,Raw,Amateur Open,Yes,M,Poland,25,90,87.9,,,,,,140,-145,-145,140,,,,,,,140
6,Oleksandr Maryniak,B,Raw,Amateur Open,Yes,M,Ukraine,24,90,88.4,,,,,,140,-150,-150,140,,,,,,,140
1,Dmytro Svyrydenko,B,Raw,Amateur Open,Yes,M,Ukraine,40,100,99.4,,,,,,180,190,-192.5,190,,,,,,,190
2,Nazar Korzhak,B,Raw,Amateur Open,Yes,M,Ukraine,24,100,99.3,,,,,,175,180,-182.5,180,,,,,,,180
3,Mikko Mäntymäki,B,Raw,Amateur Open,Yes,M,Finland,46,100,99.6,,,,,,145,150,-155,150,,,,,,,150
4,Kamil Kamiński,B,Raw,Amateur Open,Yes,M,Poland,26,100,96.2,,,,,,125,130,132.5,132.5,,,,,,,132.5
1,Krystian Liebrecht,B,Raw,Amateur Open,Yes,M,Poland,28,110,106.4,,,,,,170,180,190,190,,,,,,,190
2,Phillip Carr,B,Raw,Amateur Open,Yes,M,USA,28,110,107.9,,,,,,167.5,175,-180,175,,,,,,,175
1,Robert Dudek,B,Raw,Amateur Open,Yes,M,Poland,30,125,119.5,,,,,,170,180,190,190,,,,,,,190
1,Marek Makarewicz,B,Raw,Amateur Open,Yes,M,Poland,38,140,127.6,,,,,,-210,220,-225,220,,,,,,,220
1,Serhii Honcharuk,B,Raw,Amateur Submasters 33-39,Yes,M,Ukraine,39,75,73.2,,,,,,125,132.5,-137.5,132.5,,,,,,,132.5
1,Marek Tokarski,B,Raw,Amateur Submasters 33-39,Yes,M,Poland,36,82.5,81.5,,,,,,140,147.5,152.5,152.5,,,,,,,152.5
2,Artur Czempiel,B,Raw,Amateur Submasters 33-39,Yes,M,Poland,37,82.5,76.3,,,,,,125,132.5,-137.5,132.5,,,,,,,132.5
1,Michał Matczak,B,Raw,Amateur Submasters 33-39,Yes,M,Poland,33,90,85.9,,,,,,122.5,130,132.5,132.5,,,,,,,132.5
1,Gevorg Davtyan,B,Raw,Amateur Submasters 33-39,Yes,M,Armenia,33,110,100.2,,,,,,80,-100,-150,80,,,,,,,80
1,Marek Makarewicz,B,Raw,Amateur Submasters 33-39,Yes,M,Poland,38,140,127.6,,,,,,-210,220,-225,220,,,,,,,220
1,Artem Sukhovarov,B,Raw,Amateur Masters 40-44,Yes,M,Ukraine,41,82.5,79.8,,,,,,125,132.5,-135,132.5,,,,,,,132.5
1,Andrzej Juraszek,B,Raw,Amateur Masters 40-44,Yes,M,Poland,40,90,90,,,,,,155,162.5,-167.5,162.5,,,,,,,162.5
2,Krzysztof Klimaszewsk,B,Raw,Amateur Masters 40-44,Yes,M,Poland,41,90,84.4,,,,,,140,155,160,160,,,,,,,160
3,Juniusz Zbierski,B,Raw,Amateur Masters 40-44,Yes,M,Poland,43,90,88,,,,,,160,-165,-165,160,,,,,,,160
1,Dmytro Svyrydenko,B,Raw,Amateur Masters 40-44,Yes,M,Ukraine,40,100,99.4,,,,,,180,190,-192.5,190,,,,,,,190
2,Volodymyr Ratushnyy,B,Raw,Amateur Masters 40-44,Yes,M,Ukraine,42,100,100,,,,,,157.5,-167.5,167.5,167.5,,,,,,,167.5
1,Tomasz Prętkiewicz,B,Raw,Amateur Masters 40-44,Yes,M,Poland,44,125,116.7,,,,,,150,155,160,160,,,,,,,160
1,Krzystof Halczyk,B,Raw,Amateur Masters 40-44,Yes,M,Poland,42,140,130.2,,,,,,175,-180,,175,,,,,,,175
1,Ireneusz Rosak,B,Raw,Amateur Masters 45-49,Yes,M,Poland,47,67.5,66,,,,,,80,-90,,80,,,,,,,80
1,Ireneusz Pryk,B,Raw,Amateur Masters 45-49,Yes,M,Poland,47,82.5,80.2,,,,,,112.5,117.5,122.5,122.5,,,,,,,122.5
1,Mikko Mäntymäki,B,Raw,Amateur Masters 45-49,Yes,M,Finland,46,100,99.6,,,,,,145,150,-155,150,,,,,,,150
2,Mykola Grygorovych,B,Raw,Amateur Masters 45-49,Yes,M,Ukraine,47,100,97.1,,,,,,120,127.5,-130,127.5,,,,,,,127.5
1,Olaf Engler,B,Raw,Amateur Masters 45-49,Yes,M,Poland,46,125,112.4,,,,,,132.5,137.5,140,140,,,,,,,140
1,Grzegorz Kantor,B,Raw,Amateur Masters 45-49,Yes,M,Poland,45,140+,143.2,,,,,,175,-180,,175,,,,,,,175
1,Piotr Jurkiewicz,B,Raw,Amateur Masters 50-54,Yes,M,Poland,51,75,73.7,,,,,,110,115,120,120,,,,,,,120
1,Igor Usachev,B,Raw,Amateur Masters 50-54,Yes,M,Russia,52,100,95,,,,,,135,145,-150,145,,,,,,,145
1,Mariusz Rufkiewicz,B,Raw,Amateur Masters 50-54,Yes,M,Poland,50,110,100.5,,,,,,140,152.5,160,160,,,,,,,160
2,Vitaliy Filonenko,B,Raw,Amateur Masters 50-54,Yes,M,Ukraine,53,110,101.5,,,,,,130,-137.5,-137.5,130,,,,,,,130
1,Vladislav Marchenko,B,Raw,Amateur Masters 50-54,Yes,M,Ukraine,50,125,120.5,,,,,,160,-165,165,165,,,,,,,165
1,Gagik Saroyan,B,Raw,Amateur Masters 50-54,Yes,M,Armenia,50,140,125.1,,,,,,80,100,-125,100,,,,,,,100
1,Zdisław Leśniewski,B,Raw,Amateur Masters 55-59,Yes,M,Poland,58,82.5,80.6,,,,,,85,90,92.5,92.5,,,,,,,92.5
1,Dariusz Kołodziejczyk,B,Raw,Amateur Masters 60-64,Yes,M,Poland,62,82.5,80.3,,,,,,-100,100,-110,100,,,,,,,100
2,Ireneusz Czupryn,B,Raw,Amateur Masters 60-64,Yes,M,Poland,60,82.5,79.7,,,,,,80,87.5,-92.5,87.5,,,,,,,87.5
1,Wojciech Nitecki,B,Raw,Amateur Masters 60-64,Yes,M,Poland,62,110,108.2,,,,,,120,125,130,130,,,,,,,130
1,Piotr Redzik,B,Raw,Amateur Masters 60-64,Yes,M,Poland,60,140,126.2,,,,,,135,145.5,150,150,,,,,,,150
1,Kazimierz Tamiłowski,B,Raw,Amateur Masters 65-69,Yes,M,Poland,69,82.5,81,,,,,,130,135,-140,135,,,,,,,135
1,Valērijs Petrovs,B,Raw,Amateur Masters 70-74,Yes,M,Latvia,71,82.5,82.5,,,,,,-105,105,-110,105,,,,,,,105
2,Sylwester Kubacki,B,Raw,Amateur Masters 70-74,Yes,M,Poland,73,82.5,80.2,,,,,,80,85,87.5,87.5,,,,,,,87.5
1,Kazimierz Jasiński,B,Raw,Amateur Masters 70-74,Yes,M,Poland,70,90,85.9,,,,,,-85,85,87.5,87.5,,,,,,,87.5
1,Marek Tokarski,B,Raw,Amateur Military/Fire/Police,Yes,M,Poland,36,82.5,81.5,,,,,,140,147.5,152.5,152.5,,,,,,,152.5
1,Andrzej Juraszek,B,Raw,Amateur Military/Fire/Police,Yes,M,Poland,40,90,90,,,,,,155,162.5,-167.5,162.5,,,,,,,162.5
1,Dmytro Svyrydenko,B,Raw,Amateur Military/Fire/Police,Yes,M,Ukraine,40,100,99.4,,,,,,180,190,-192.5,190,,,,,,,190
2,Volodymyr Ratushnyy,B,Raw,Amateur Military/Fire/Police,Yes,M,Ukraine,42,100,100,,,,,,157.5,-167.5,167.5,167.5,,,,,,,167.5
1,Phillip Carr,B,Raw,Amateur Military/Fire/Police,Yes,M,USA,28,110,107.9,,,,,,167.5,175,-180,175,,,,,,,175
1,Krzystof Halczyk,B,Raw,Amateur Military/Fire/Police,Yes,M,Poland,42,140,130.2,,,,,,175,-180,,175,,,,,,,175
1,Kasandra Patelczyk,B,Raw,Amateur Teen 16-17,Yes,F,Poland,17,56,53.5,,,,,,52.5,-57.5,-57.5,52.5,,,,,,,52.5
1,Agata Imianowska,B,Raw,Amateur Teen 18-19,Yes,F,Poland,19,56,55.2,,,,,,60,-62.5,-62.5,60,,,,,,,60
1,Anna Syvokobylska,B,Raw,Amateur Teen 18-19,Yes,F,Ukraine,19,60,59.1,,,,,,52.5,57.5,60,60,,,,,,,60
1,Kamila Korolewska,B,Raw,Amateur Juniors 20-23,Yes,F,Poland,23,67.5,66.3,,,,,,57.5,60,-62.5,60,,,,,,,60
1,Agata Imianowska,B,Raw,Amateur Open,Yes,F,Poland,19,56,55.2,,,,,,60,-62.5,-62.5,60,,,,,,,60
2,Anna Maj,B,Raw,Amateur Open,Yes,F,Poland,34,56,54.9,,,,,,50,55,-57.5,55,,,,,,,55
1,Joanna Gawron,B,Raw,Amateur Open,Yes,F,Poland,24,60,58.4,,,,,,50,55,-60,55,,,,,,,55
1,Monika Gryziecka,B,Raw,Amateur Open,Yes,F,Poland,36,67.5,65.1,,,,,,65,67.5,-72.5,67.5,,,,,,,67.5
1,Monika Gryziecka,B,Raw,Amateur Submasters 33-39,Yes,F,Poland,36,67.5,65.1,,,,,,65,67.5,-72.5,67.5,,,,,,,67.5
1,Bartolomiej Gaweł,B,Multi-ply,Amateur Open,Yes,M,Poland,37,75,74.8,,,,,,-190,190,-210,190,,,,,,,190
1,Sergii Didovyk,B,Multi-ply,Amateur Open,Yes,M,Ukraine,39,100,100,,,,,,260,-270,-270,260,,,,,,,260
1,Bartolomiej Gaweł,B,Multi-ply,Amateur Submasters 33-39,Yes,M,Poland,37,75,74.8,,,,,,-190,190,-210,190,,,,,,,190
1,Sergii Didovyk,B,Multi-ply,Amateur Submasters 33-39,Yes,M,Ukraine,39,100,100,,,,,,260,-270,-270,260,,,,,,,260
1,Mykola Rurych,B,Multi-ply,Amateur Masters 60-64,Yes,M,Ukraine,60,75,72.1,,,,,,85,95,-100,95,,,,,,,95
1,Stanisław Kozeko,B,Multi-ply,Amateur Masters 60-64,Yes,M,Poland,60,100,92.7,,,,,,145,-160,-160,145,,,,,,,145
1,Kazimierz Tamiłowski,B,Multi-ply,Amateur Masters 65-69,Yes,M,Poland,69,82.5,81,,,,,,-150,152.5,160,160,,,,,,,160
1,Valērijs Petrovs,B,Multi-ply,Amateur Masters 70-74,Yes,M,Latvia,71,82.5,82.5,,,,,,120,-125,,120,,,,,,,120
1,Hovhannes Antonyan,D,Raw,Amateur Sub-Teen 11-12,Yes,M,Armenia,11,52,52,,,,,,,,,,,70,92.5,95,95,,95
1,Norik Karapetyan,D,Raw,Amateur Teen 13-15,Yes,M,Armenia,14,56,54.2,,,,,,,,,,,70,92.5,95,95,,95
1,Kevin Messina,D,Raw,Amateur Teen 13-15,Yes,M,Italy,14,82.5,78.5,,,,,,,,,,,-160,160,171,171,180,171
1,Radosław Wąs,D,Raw,Amateur Teen 13-15,Yes,M,Poland,15,110,102.5,,,,,,,,,,,195,205,210,210,,210
1,Krystian Zawadzki,D,Raw,Amateur Teen 16-17,Yes,M,Poland,17,67.5,60.9,,,,,,,,,,,120,130,135,135,,135
1,Ivan Messina,D,Raw,Amateur Teen 18-19,Yes,M,Italy,19,82.5,78.7,,,,,,,,,,,-180,180,195,195,,195
1,Kamil Olewicz,D,Raw,Amateur Juniors 20-23,Yes,M,Poland,23,67.5,64,,,,,,,,,,,200,-207.5,-212.5,200,,200
1,Przemysław Kawczyński,D,Raw,Amateur Juniors 20-23,Yes,M,Poland,23,82.5,82.3,,,,,,,,,,,200,217.5,-222.5,217.5,,217.5
1,Arkadiusz Szmuc,D,Raw,Amateur Juniors 20-23,Yes,M,Poland,22,110,105.3,,,,,,,,,,,240,250,260,260,,260
2,Dawid Mielewczyk,D,Raw,Amateur Juniors 20-23,Yes,M,Poland,21,110,104,,,,,,,,,,,-210,210,220,220,,220
1,Piotr Gaj,D,Raw,Amateur Juniors 20-23,Yes,M,Poland,24,140,127,,,,,,,,,,,280,-290,-290,280,,280
1,Kamo Baghdasaryan,D,Raw,Amateur Open,Yes,M,Armenia,24,52,52,,,,,,,,,,,-150,172.5,175,175,,175
1,Andrea Di Trio,D,Raw,Amateur Open,Yes,M,Italy,24,67.5,64.9,,,,,,,,,,,190,210,-227.5,210,,210
1,Tomasz Miloch,D,Raw,Amateur Open,Yes,M,Poland,34,82.5,79,,,,,,,,,,,235,245,250,250,,250
2,Mateusz Buławski,D,Raw,Amateur Open,Yes,M,Poland,28,82.5,79.6,,,,,,,,,,,200,215,-225,215,,215
1,Artur Podraza,D,Raw,Amateur Open,Yes,M,Poland,31,90,87.8,,,,,,,,,,,-220,220,-250,220,,220
2,Bartosz Żabiński,D,Raw,Amateur Open,Yes,M,Poland,26,90,86.9,,,,,,,,,,,200,210,-212.5,210,,210
3,Oleksandr Maryniak,D,Raw,Amateur Open,Yes,M,Ukraine,24,90,88.4,,,,,,,,,,,170,190,202.5,202.5,,202.5
4,Michał Michajłowski,D,Raw,Amateur Open,Yes,M,Poland,25,90,87.9,,,,,,,,,,,200,-205,-205,200,,200
1,Nshan Malkhasyan,D,Raw,Amateur Open,Yes,M,Armenia,26,100,96.2,,,,,,,,,,,280,-300,-300,280,,280
2,Karol Frąckowiak,D,Raw,Amateur Open,Yes,M,Poland,25,100,98.1,,,,,,,,,,,260,275,-282.5,275,,275
3,Oleksandr Lisovskiy #1,D,Raw,Amateur Open,Yes,M,Ukraine,27,100,94.5,,,,,,,,,,,-260,260,-275,260,,260
4,Nazar Korzhak,D,Raw,Amateur Open,Yes,M,Ukraine,24,100,99.3,,,,,,,,,,,240,250,260,260,,260
5,Mikko Mäntymäki,D,Raw,Amateur Open,Yes,M,Finland,46,100,99.6,,,,,,,,,,,245,255,-262.5,255,,255
1,Phillip Carr,D,Raw,Amateur Open,Yes,M,USA,28,110,107.9,,,,,,,,,,,235,242.5,250,250,,250
2,Konrad Czupryn,D,Raw,Amateur Open,Yes,M,Poland,38,110,101.9,,,,,,,,,,,200,215,225,225,,225
1,Sebastian Szkołut,D,Raw,Amateur Open,Yes,M,Poland,35,125,112.4,,,,,,,,,,,250,260,270,270,,270
1,Serhii Honcharuk,D,Raw,Amateur Submasters 33-39,Yes,M,Ukraine,39,75,73.2,,,,,,,,,,,175,180,-185,180,,180
1,Tomasz Miloch,D,Raw,Amateur Submasters 33-39,Yes,M,Poland,34,82.5,79,,,,,,,,,,,235,245,250,250,,250
1,Sebastian Szkołut,D,Raw,Amateur Submasters 33-39,Yes,M,Poland,35,125,112.4,,,,,,,,,,,250,260,270,270,,270
1,Mikko Mäntymäki,D,Raw,Amateur Masters 45-49,Yes,M,Finland,46,100,99.6,,,,,,,,,,,245,255,-262.5,255,,255
1,Olaf Engler,D,Raw,Amateur Masters 45-49,Yes,M,Poland,46,125,112.4,,,,,,,,,,,160,170,180,180,,180
1,Igor Usachev,D,Raw,Amateur Masters 50-54,Yes,M,Russia,52,100,95,,,,,,,,,,,200,212.5,,212.5,,212.5
1,Mariusz Rufkiewicz,D,Raw,Amateur Masters 50-54,Yes,M,Poland,50,110,100.5,,,,,,,,,,,200,220,235,235,242.5,235
2,Vitaliy Filonenko,D,Raw,Amateur Masters 50-54,Yes,M,Ukraine,53,110,101.5,,,,,,,,,,,160,170,180,180,,180
1,Vladislav Marchenko,D,Raw,Amateur Masters 50-54,Yes,M,Ukraine,50,125,120.5,,,,,,,,,,,200,-220,-240,200,,200
1,Andrzej Stasiak,D,Raw,Amateur Masters 55-59,Yes,M,Poland,52,82.5,80.8,,,,,,,,,,,185,195,-200,195,,195
1,Piotr Redzik,D,Raw,Amateur Masters 60-64,Yes,M,Poland,60,140,126.2,,,,,,,,,,,200,215,230,230,,230
1,Józef Bejgrowicz,D,Raw,Amateur Masters 65-69,Yes,M,Poland,65,82.5,82.5,,,,,,,,,,,210,225,230,230,,230
1,Jan Łuka,D,Raw,Amateur Masters 65-69,Yes,M,Poland,68,90,85.5,,,,,,,,,,,220,-230,230,230,,230
1,Stefan Sochaňski,D,Raw,Amateur Masters 65-69,Yes,M,Poland,69,100,90.2,,,,,,,,,,,185,205,212.5,212.5,,212.5
1,Kazimierz Jasiński,D,Raw,Amateur Masters 70-74,Yes,M,Poland,70,90,85.9,,,,,,,,,,,180,185,190,190,,190
1,Przemysław Kawczyński,D,Raw,Amateur Military/Fire/Police,Yes,M,Poland,23,82.5,82.3,,,,,,,,,,,200,217.5,-222.5,217.5,,217.5
1,Phillip Carr,D,Raw,Amateur Military/Fire/Police,Yes,M,USA,28,110,107.9,,,,,,,,,,,235,242.5,250,250,,250
1,Asia Kaczmarczyk,D,Raw,Amateur Teen 13-15,Yes,F,Poland,13,44,32.6,,,,,,,,,,,50,55,60,60,,60
1,Adriana Styrczula,D,Raw,Amateur Teen 13-15,Yes,F,Poland,13,75,73.4,,,,,,,,,,,65,70,80,80,,80
1,Kasandra Patelczyk,D,Raw,Amateur Teen 16-17,Yes,F,Poland,17,56,53.5,,,,,,,,,,,105,-115,115,115,,115
1,Anna Syvokobylska,D,Raw,Amateur Teen 18-19,Yes,F,Ukraine,19,60,59.1,,,,,,,,,,,100,-115,-115,100,,100
1,Gabriela Gacek,D,Raw,Amateur Teen 18-19,Yes,F,Poland,19,67.5,61.5,,,,,,,,,,,105,112.5,117.5,117.5,,117.5
1,Renata Zapała,D,Raw,Amateur Juniors 20-23,Yes,F,Poland,23,75,70,,,,,,,,,,,125,135,142.5,142.5,,142.5
1,Olga Yarmolyuk,D,Raw,Amateur Open,Yes,F,Ukraine,28,56,53.7,,,,,,,,,,,150,160,-165.5,160,,160
2,Anna Maj,D,Raw,Amateur Open,Yes,F,Poland,34,56,54.9,,,,,,,,,,,100,105,-110,105,,105
1,Joanna Gawron,D,Raw,Amateur Open,Yes,F,Poland,24,60,58.4,,,,,,,,,,,120,130,135,135,,135
1,Anna Maj,D,Raw,Amateur Submasters 33-39,Yes,F,Poland,34,56,54.9,,,,,,,,,,,100,105,-110,105,,105
1,Bernadetta Styrczula,D,Raw,Amateur Submasters 33-39,Yes,F,Poland,35,67.5,64.4,,,,,,,,,,,125,135,140,140,,140
1,Marzena Janzer,D,Raw,Amateur Masters 40-44,Yes,F,Poland,43,82.5,79,,,,,,,,,,,105,110,115,115,,115
1,Oleksandr Mushynskyi,D,Multi-ply,Amateur Open,Yes,M,Ukraine,24,82.5,81.4,,,,,,,,,,,210,225,-240,225,,225
1,Karol Frąckowiak,D,Multi-ply,Amateur Open,Yes,M,Poland,25,100,98.1,,,,,,,,,,,260,275,-285,275,,275
1,Albert Tonoyan,SBD,Wraps,Pro Juniors 20-23,No,M,Armenia,20,67.5,64.9,110,120,-127.5,120,,100,110,,110,,130,145,160,160,,390
1,Dawid Perenc,SBD,Wraps,Pro Juniors 20-23,No,M,Poland,22,100,100,260,-270,-270,260,,150,155,-157.5,155,,260,275,292.5,292.5,,707.5
2,Tomasz Benisz,SBD,Wraps,Pro Juniors 20-23,No,M,Poland,21,100,98.1,-230,-230,230,230,,160,-170,-170,160,,255,275,-300,275,,665
DQ,Patryk Citko,SBD,Wraps,Pro Juniors 20-23,No,M,Poland,23,100,99.3,230,-240,240,240,,-150,-150,-150,,,-230,,,,,
1,Maciej Kopacewicz,SBD,Wraps,Pro Juniors 20-23,No,M,Poland,22,110,100.1,190,-200,200,200,,160,175,180,180,,230,260,270,270,,650
1,Mateusz Kaczmarek,SBD,Wraps,Pro Open,No,M,Poland,24,75,70.7,160,-170,-170,160,,115,120,125,125,,170,180,190,190,,475
1,Alexander Karpenko,SBD,Wraps,Pro Open,No,M,Russia,25,82.5,82.3,-300,300,-315,300,,160,170,175,175,,300,320,340,340,,815
1,Yaroslav Lytvynenko,SBD,Wraps,Pro Open,No,M,Ukraine,41,90,88.3,240,-250,-250,240,,142.5,152.5,-160,152.5,,262.5,272.5,-280,272.5,,665
1,János Fazekas,SBD,Wraps,Pro Open,No,M,Hungary,30,100,97,-300,300,-330,300,,185,-195,197.5,197.5,,300,-320,-320,300,,797.5
2,Péter Czentye,SBD,Wraps,Pro Open,No,M,Hungary,28,100,97.5,265,277.5,-290,277.5,,150,155,160,160,,265,275,280,280,,717.5
3,Viktor Rublyov,SBD,Wraps,Pro Open,No,M,Ukraine,42,100,97.2,240,-260,260,260,,160,170,-175,170,,250,265,-275,265,,695
1,Jacek Ostrowski,SBD,Wraps,Pro Open,No,M,Poland,32,110,107.7,280,295,-305,295,,180,-190,190,190,,290,305,-315,305,,790
2,Andrzej Mitera,SBD,Wraps,Pro Open,No,M,Poland,30,110,107.6,260,280,290,290,,180,-190,-190,180,,270,285,-290,285,,755
3,Dmytro Gotlashov,SBD,Wraps,Pro Open,No,M,Ukraine,32,110,109.7,270,280,290,290,,155,160,165,165,,280,290,300,300,,755
4,Rafał Ziewiecki,SBD,Wraps,Pro Open,No,M,Poland,30,110,107.7,235,250,257.5,257.5,,150,160,-167.5,160,,285,300,315,315,,732.5
1,Marcin Skowroński,SBD,Wraps,Pro Open,No,M,Poland,27,125,121.8,280,295,305,305,,160,170,175,175,,280,300,-320,300,,780
2,Przemysław Tomica,SBD,Wraps,Pro Open,No,M,Poland,30,125,120.9,240,260,-290,260,,162.5,175,185,185,,230,255,275,275,,720
1,Patryk Łazor,SBD,Wraps,Pro Open,No,M,Poland,24,140,127.2,290,-310,-310,290,,175,185,190,190,,300,315,325,325,,805
2,Hayk Barsamyan,SBD,Wraps,Pro Open,No,M,Armenia,34,140,130,-270,270,290,290,,150,170,175,175,,280,290,300,300,,765
1,Mateusz Pawlikowski,SBD,Wraps,Pro Open,No,M,Poland,25,140+,146.4,280,292.5,300,300,,215,222.5,-227.5,222.5,,310,-327.5,,310,,832.5
1,Paweł Grab,SBD,Wraps,Pro Submasters 33-39,No,M,Poland,34,75,75,-145,145,160,160,,142.5,150,-155,150,,190,210,227.5,227.5,,537.50
1,Artur Hakobyan,SBD,Wraps,Pro Submasters 33-39,No,M,Armenia,37,100,95.1,-240,-240,240,240,,170,180,-185,180,,280,300,310,310,,730
1,Hayk Barsamyan,SBD,Wraps,Pro Submasters 33-39,No,M,Armenia,34,140,130,-270,270,290,290,,150,170,175,175,,280,290,300,300,,765.00
DQ,Igor Povazhniuk,SBD,Wraps,Pro Masters 40-44,No,M,Ukraine,42,82.5,79.9,-240,-260,-285,,,-170,,,,,-230,,,,,
1,Yaroslav Lytvynenko,SBD,Wraps,Pro Masters 40-44,No,M,Ukraine,41,90,88.3,240,-250,-250,240,,142.5,152.5,-160,152.5,,262.5,272.5,-280,272.5,,665
1,Viktor Rublyov,SBD,Wraps,Pro Masters 40-44,No,M,Ukraine,42,100,97.2,240,-260,260,260,,160,170,-175,170,,250,265,-275,265,,695
1,Oleksandr Desyatskyy,SBD,Wraps,Pro Masters 40-44,No,M,Ukraine,41,125,125,240,250,-260,250,,205,210,-215,210,,260,280,-290,280,,740
1,Datuna Mzhavanadze,SBD,Wraps,Pro Masters 45-49,No,M,Georgia,45,110,103.6,160,-190,-210,160,,170,190,-195,190,,220,252.5,-260,252.5,,602.5
1,Gagik Tonoyan,SBD,Wraps,Pro Masters 50-54,No,M,Armenia,51,110,108.5,-260,260,-285,260,,130,140,,140,,270,290,-300,290,,690.00
1,Antoni Kaliňski,SBD,Wraps,Pro Masters 60-64,No,M,Poland,64,67.5,67,-120,120,135,135,,100,105,107.5,107.5,,120,130,135,135,,377.5
1,Robert Feldman,SBD,Wraps,Pro Masters 60-64,No,M,USA,62,82.5,80.7,135,-147.5,150,150,,107.5,117.5,-122.5,117.5,,200,207.5,215,215,,482.50
1,Ilia Kochiashvili,SBD,Wraps,Pro Military/Fire/Police,No,M,Georgia,26,110,109,170,190,220,220,,150,160,170,170,,220,250,260,260,,650
1,Marcin Skowroński,SBD,Wraps,Pro Military/Fire/Police,No,M,Poland,27,125,121.8,280,295,305,305,,160,170,175,175,,280,300,-320,300,,780.00
1,Tetiana Brodetska,SBD,Wraps,Pro Juniors 20-23,No,F,Ukraine,21,75,74.8,170,-180,180,180,185,80,85,87.5,87.5,-90,170,180,-182.5,180,,447.5
1,Tatevik Mkrtchyan,SBD,Wraps,Pro Open,No,F,Armenia,28,67.5,62,100,120,-135,120,,60,70,75,75,,120,140,160,160,,355
1,Zurab Abasidze,D,Raw,Pro Teen 16-17,No,M,Georgia,17,100,99.9,,,,,,,,,,,200,220,235,235,,235
2,Nika Diasamidze,D,Raw,Pro Teen 16-17,No,M,Georgia,16,100,97.7,,,,,,,,,,,190,210,220,220,,220
1,Nukri Diasamidze,D,Raw,Pro Juniors 20-23,No,M,Georgia,21,75,73.6,,,,,,,,,,,200,220,-230,220,,220
1,Maciej Kopacewicz,D,Raw,Pro Juniors 20-23,No,M,Poland,22,110,100.1,,,,,,,,,,,230,260,270,270,,270
1,Sergey Alvanyan,D,Raw,Pro Open,No,M,Armenia,32,90,89.9,,,,,,,,,,,255,275,-280,275,,275
2,Yaroslav Lytvynenko,D,Raw,Pro Open,No,M,Ukraine,41,90,88.3,,,,,,,,,,,262.5,272.5,-280,272.5,,272.5
3,Valerii Poryadin,D,Raw,Pro Open,No,M,Russia,51,90,88.9,,,,,,,,,,,210,232.5,-250,232.5,,232.5
1,Józef Sokołowski,D,Raw,Pro Open,No,M,Poland,62,100,98.9,,,,,,,,,,,270,285,290,290,,290
2,Michał Szaszkowski,D,Raw,Pro Open,No,M,Poland,29,100,92.7,,,,,,,,,,,160,175,185,185,,185
1,Grzegorz Rompalski,D,Raw,Pro Open,No,M,Poland,35,110,104.4,,,,,,,,,,,280,300,-310,300,,300
2,Łukasz Lipka,D,Raw,Pro Open,No,M,Poland,25,110,105.4,,,,,,,,,,,280,300,-305,300,,300
3,Dmytro Gotlashov,D,Raw,Pro Open,No,M,Ukraine,32,110,109.7,,,,,,,,,,,280,290,300,300,,300
1,Mariusz Bojanowski,D,Raw,Pro Open,No,M,Poland,34,125,114.2,,,,,,,,,,,290,300,310,310,,310
2,Robert Nemś,D,Raw,Pro Open,No,M,Poland,48,125,114,,,,,,,,,,,260,275,-290,275,,275
1,Piotr Czapiewski,D,Raw,Pro Open,No,M,Poland,42,140,130,,,,,,,,,,,320,330,-340,330,,330
2,Patryk Łazor,D,Raw,Pro Open,No,M,Poland,24,140,127.2,,,,,,,,,,,300,315,325,325,,325
3,Hayk Barsamyan,D,Raw,Pro Open,No,M,Armenia,34,140,130,,,,,,,,,,,280,290,300,300,,300
1,Paweł Grab,D,Raw,Pro Submasters 33-39,No,M,Poland,34,75,75,,,,,,,,,,,190,210,227.5,227.5,,227.5
2,Andrii Avdieiev,D,Raw,Pro Submasters 33-39,No,M,Ukraine,34,75,74.5,,,,,,,,,,,195,207.5,215,215,,215
1,Artur Hakobyan,D,Raw,Pro Submasters 33-39,No,M,Armenia,37,100,95.1,,,,,,,,,,,280,300,310,310,,310
1,Grzegorz Rompalski,D,Raw,Pro Submasters 33-39,No,M,Poland,35,110,104.4,,,,,,,,,,,280,300,-310,300,,300
1,Hayk Barsamyan,D,Raw,Pro Submasters 33-39,No,M,Armenia,34,140,130,,,,,,,,,,,280,290,300,300,,300
1,Igor Povazhniuk,D,Raw,Pro Masters 40-44,No,M,Ukraine,42,82.5,79.9,,,,,,,,,,,230,260,275,275,,275
1,Yaroslav Lytvynenko,D,Raw,Pro Masters 40-44,No,M,Ukraine,41,90,88.3,,,,,,,,,,,262.5,272.5,-280,272.5,,272.5
1,Viktor Rublyov,D,Raw,Pro Masters 40-44,No,M,Ukraine,42,100,97.2,,,,,,,,,,,250,265,-275,265,,265
2,Grzegorz Drewniany,D,Raw,Pro Masters 40-44,No,M,Poland,40,100,96.8,,,,,,,,,,,230,240,-252.5,240,,240
1,Piotr Czapiewski,D,Raw,Pro Masters 40-44,No,M,Poland,42,140,130,,,,,,,,,,,320,330,-340,330,,330
1,Datuna Mzhavanadze,D,Raw,Pro Masters 45-49,No,M,Georgia,45,110,103.6,,,,,,,,,,,220,252.5,-260,252.5,,252.5
1,Robert Nemś,D,Raw,Pro Masters 45-49,No,M,Poland,48,125,114,,,,,,,,,,,260,275,-290,275,,275
1,Valerii Poryadin,D,Raw,Pro Masters 50-54,No,M,Russia,51,90,88.9,,,,,,,,,,,210,232.5,-250,232.5,,232.5
1,Marian Knuth,D,Raw,Pro Masters 55-59,No,M,Poland,59,90,89.1,,,,,,,,,,,200,215,-231,215,,215
1,Janusz Witkowski,D,Raw,Pro Masters 55-59,No,M,Poland,57,110,108,,,,,,,,,,,190,205,220,220,,220
1,Zbigniew Koper,D,Raw,Pro Masters 60-64,No,M,Poland,64,82.5,78.8,,,,,,,,,,,150,162.5,172,172,,172
2,Mieczysłąw Maczka,D,Raw,Pro Masters 60-64,No,M,Germany,63,82.5,82,,,,,,,,,,,120,170,-175,170,,170
1,Józef Sokołowski,D,Raw,Pro Masters 60-64,No,M,Poland,62,100,98.9,,,,,,,,,,,270,285,290,290,,290
2,Wiesław Wrŏbel,D,Raw,Pro Masters 60-64,No,M,Poland,60,100,96.6,,,,,,,,,,,230,240,250,250,,250
1,Ryszard Śliwiński,D,Raw,Pro Masters 65-69,No,M,Poland,67,75,74.2,,,,,,,,,,,142.5,152.5,157.5,157.5,,157.5
1,Witold Tarkowski,D,Raw,Pro Masters 70-74,No,M,Poland,73,60,59.2,,,,,,,,,,,100,105,107.5,107.5,,107.5
1,Weronika Lenort,D,Raw,Pro Teen 16-17,No,F,Poland,17,67.5,67.4,,,,,,,,,,,150,-172.5,-172.5,150,,150
1,Tetiana Brodetska,D,Raw,Pro Juniors 20-23,No,F,Ukraine,21,75,74.8,,,,,,,,,,,170,180,-182.5,180,,180
1,Tatevik Mkrtchyan,D,Raw,Pro Open,No,F,Armenia,28,67.5,62,,,,,,,,,,,120,140,160,160,,160
1,Tetiana Brodetska,D,Raw,Pro Open,No,F,Ukraine,21,75,74.8,,,,,,,,,,,170,180,-182.5,180,,180
2,Beata Kowalska,D,Raw,Pro Open,No,F,Poland,44,75,73,,,,,,,,,,,130,140,-160,140,,140
3,Anna Paluszik,D,Raw,Pro Open,No,F,Poland,27,75,71.3,,,,,,,,,,,90,100,105,105,,105
1,Beata Kowalska,D,Raw,Pro Masters 40-44,No,F,Poland,44,75,73,,,,,,,,,,,130,140,-160,140,,140
1,Elżbieta Świecik,D,Raw,Pro Masters 45-49,No,F,Poland,47,56,55.1,,,,,,,,,,,90,100,-105,100,,100
1,Krystyna Puzio,D,Raw,Pro Masters 50-54,No,F,Poland,52,90+,98,,,,,,,,,,,145,155,160,160,,160
1,Valerii Poryadin,D,Multi-ply,Pro Open,No,M,Russia,51,90,88.9,,,,,,,,,,,210,237.5,,237.5,,237.5
1,Dmytro Gotlashov,D,Multi-ply,Pro Open,No,M,Ukraine,32,110,109.7,,,,,,,,,,,280,290,300,300,,300
1,Przemysław Tomica,D,Multi-ply,Pro Open,No,M,Poland,30,125,120.9,,,,,,,,,,,-200,210,300,300,,300
1,Valerii Poryadin,D,Multi-ply,Pro Masters 50-54,No,M,Russia,51,90,88.9,,,,,,,,,,,210,237.5,,237.5,,237.5
1,Mieczysłąw Maczka,D,Multi-ply,Pro Masters 60-64,No,M,Germany,63,82.5,82,,,,,,,,,,,120,130,,130,,130
1,Wiesław Wrŏbel,D,Multi-ply,Pro Masters 60-64,No,M,Poland,60,100,96.6,,,,,,,,,,,220,235,,235,,235
1,Bartolomej Prukop,B,Raw,Pro Youth 10,No,M,Poland,10,44,37.2,,,,,,-22.5,25,27.5,27.5,,,,,,,27.5
1,Oleg Mykhalskyy,B,Raw,Pro Teen 13-15,No,M,Ukraine,13,44,38.1,,,,,,52.5,55,-57.5,55,,,,,,,55
1,Oleg Dyakiv,B,Raw,Pro Teen 16-17,No,M,Ukraine,16,67.5,63.2,,,,,,80,90,-95,90,,,,,,,90
1,Giorgi Lortkipanidze,B,Raw,Pro Teen 16-17,No,M,Georgia,16,75,75,,,,,,75,90,102.5,102.5,,,,,,,102.5
2,Patryk Strzałek,B,Raw,Pro Teen 16-17,No,M,Poland,16,75,70.9,,,,,,90,95,100,100,,,,,,,100
1,Mateusz Schmidla,B,Raw,Pro Teen 16-17,No,M,Poland,17,82.5,81.4,,,,,,80,90,-100,90,,,,,,,90
1,Dawid Urbanowicz,B,Raw,Pro Teen 18-19,No,M,Poland,18,82.5,76.1,,,,,,100,110,-115,110,,,,,,,110
1,Krystian Ludkowski,B,Raw,Pro Teen 18-19,No,M,Poland,19,110,109.3,,,,,,145,-152.5,152.5,152.5,,,,,,,152.5
1,Adam Kopka,B,Raw,Pro Teen 18-19,No,M,Poland,19,140,129.5,,,,,,140,145,-150,145,,,,,,,145
1,Jakub Chrzanowski,B,Raw,Pro Juniors 20-23,No,M,Poland,20,75,72.9,,,,,,175,185.5,-190,185.5,,,,,,,185.5
1,Patryk Kaczmarek,B,Raw,Pro Juniors 20-23,No,M,Poland,22,90,89.6,,,,,,160,165,167.5,167.5,,,,,,,167.5
2,Patryk Zgliński,B,Raw,Pro Juniors 20-23,No,M,Poland,23,90,89.5,,,,,,160,-165,-167.5,160,,,,,,,160
1,Radosław Borowy,B,Raw,Pro Juniors 20-23,No,M,Poland,22,100,98.1,,,,,,200,-212.5,-212.5,200,,,,,,,200
2,Dawid Ziółkowski,B,Raw,Pro Juniors 20-23,No,M,Poland,21,100,98.8,,,,,,190,-195,-195,190,,,,,,,190
1,Maciej Kopacewicz,B,Raw,Pro Juniors 20-23,No,M,Poland,22,110,100.1,,,,,,160,170,180,180,,,,,,,180
1,Marcin Sokołowski,B,Raw,Pro Juniors 20-23,No,M,Poland,20,140,128.4,,,,,,-195,195,202.5,202.5,,,,,,,202.5
1,Marcin Biegun,B,Raw,Pro Open,No,M,Poland,35,56,55,,,,,,97.5,102.5,107.5,107.5,,,,,,,107.5
2,Michał Zębrowski,B,Raw,Pro Open,No,M,Poland,26,56,55.7,,,,,,92.5,97.5,100,100,,,,,,,100
3,Dawid Hartleb,B,Raw,Pro Open,No,M,Poland,29,56,55.3,,,,,,75,-82.5,-82.5,75,,,,,,,75
1,Oleksandr Zhariy,B,Raw,Pro Open,No,M,Ukraine,45,60,59.9,,,,,,122.5,127.5,-130,127.5,,,,,,,127.5
1,Krzysztof Kuraciński,B,Raw,Pro Open,No,M,Poland,30,67.5,65.9,,,,,,135,142.5,145,145,,,,,,,145
1,Jakub Chrzanowski,B,Raw,Pro Open,No,M,Poland,20,75,72.9,,,,,,175,185.5,-190,185.5,,,,,,,185.5
2,Dmitrii Kukharenko,B,Raw,Pro Open,No,M,Spain,48,75,75,,,,,,160,165,170,170,-180,,,,,,170
1,Mateusz Pawelak,B,Raw,Pro Open,No,M,Poland,27,82.5,82.4,,,,,,210,-215,-215,210,,,,,,,210
2,Patryk Popiołek,B,Raw,Pro Open,No,M,Poland,26,82.5,81.2,,,,,,180,190,-195,190,,,,,,,190
3,Viktor Blakytnyy,B,Raw,Pro Open,No,M,Ukraine,36,82.5,80.1,,,,,,165,175,177.5,177.5,,,,,,,177.5
1,Roman Martynenko,B,Raw,Pro Open,No,M,Ukraine,26,90,89.9,,,,,,215,-222.5,222.5,222.5,,,,,,,222.5
2,Mateusz Gajewicz,B,Raw,Pro Open,No,M,Poland,24,90,89.4,,,,,,210,-220,220,220,,,,,,,220
3,Volodymyr Galyga,B,Raw,Pro Open,No,M,Ukraine,34,90,90,,,,,,-200,200,-205,200,,,,,,,200
4,Zbigniew Boczar,B,Raw,Pro Open,No,M,Poland,32,90,84.6,,,,,,170,177.5,-180,177.5,,,,,,,177.5
5,Patryk Kaczmarek,B,Raw,Pro Open,No,M,Poland,22,90,89.6,,,,,,160,165,167.5,167.5,,,,,,,167.5
6,Patryk Zgliński,B,Raw,Pro Open,No,M,Poland,23,90,89.5,,,,,,160,-165,-167.5,160,,,,,,,160
1,Hovhannes Yazichyan,B,Raw,Pro Open,No,M,Armenia,46,100,96.2,,,,,,210,215,220,220,-227.5,,,,,,220
2,Michał Wilk,B,Raw,Pro Open,No,M,Poland,36,100,99.2,,,,,,202.5,-212.5,-217.5,202.5,,,,,,,202.5
3,Przemysław Dobrowolski,B,Raw,Pro Open,No,M,Poland,31,100,95.4,,,,,,190,195,-200,195,,,,,,,195
DQ,Rafał Ogórek,B,Raw,Pro Open,No,M,Poland,29,100,99.1,,,,,,-200,,,,,,,,,,
1,Andrzej Kocyła,B,Raw,Pro Open,No,M,Poland,41,110,104.8,,,,,,-240,247.5,-255,247.5,,,,,,,247.5
2,Krzysztof Bożyczko-Jałocha,B,Raw,Pro Open,No,M,Poland,52,110,108.2,,,,,,210,217.5,220,220,-225,,,,,,220
3,Adam Sławnikowski,B,Raw,Pro Open,No,M,Poland,30,110,108.9,,,,,,200,-205,-205,200,,,,,,,200
4,Krzysztof Celiński,B,Raw,Pro Open,No,M,Poland,32,110,106.3,,,,,,190,195,-197.5,195,,,,,,,195
5,Datuna Mzhavanadze,B,Raw,Pro Open,No,M,Georgia,45,110,103.6,,,,,,170,190,-195,190,,,,,,,190
6,Wojciech Różycki,B,Raw,Pro Open,No,M,Poland,31,110,107.8,,,,,,180,190,-197.5,190,,,,,,,190
1,Paweł Liszcz,B,Raw,Pro Open,No,M,Poland,39,125,116.1,,,,,,242.5,250,255,255,,,,,,,255
DQ,Arkadiusz Herodowicz,B,Raw,Pro Open,No,M,Poland,35,125,116.4,,,,,,-235,-240,-240,,,,,,,,
1,Konrad Fornalczyk,B,Raw,Pro Open,No,M,Poland,31,140,129.7,,,,,,225,230,240,240,,,,,,,240
2,Waldemar Nacewicz,B,Raw,Pro Open,No,M,Poland,54,140,135.6,,,,,,220,230,240,240,-245,,,,,,240
3,Arkadiusz Duranowski,B,Raw,Pro Open,No,M,Poland,35,140,132.5,,,,,,-180,190,-200,190,,,,,,,190
1,Michał Rudziński,B,Raw,Pro Open,No,M,Poland,38,140+,160,,,,,,270,280,-290,280,,,,,,,280
2,Marcin Karkula,B,Raw,Pro Open,No,M,Poland,34,140+,158.4,,,,,,250,-262.5,-265,250,,,,,,,250
1,Łukasz Kozłowski,B,Raw,Pro Submasters 33-39,No,M,Poland,34,75,73.6,,,,,,145,150,157.5,157.5,,,,,,,157.5
2,Paweł Grab,B,Raw,Pro Submasters 33-39,No,M,Poland,34,75,75,,,,,,145,152.5,-160,152.5,,,,,,,152.5
1,Adam Bluj,B,Raw,Pro Submasters 33-39,No,M,Poland,36,82.5,81.1,,,,,,160,170,180,180,,,,,,,180
2,Viktor Blakytnyy,B,Raw,Pro Submasters 33-39,No,M,Ukraine,36,82.5,80.1,,,,,,165,175,177.5,177.5,,,,,,,177.5
1,Volodymyr Galyga,B,Raw,Pro Submasters 33-39,No,M,Ukraine,34,90,90,,,,,,-200,200,-205,200,,,,,,,200
2,Konrad Piaszczyk,B,Raw,Pro Submasters 33-39,No,M,Poland,39,90,88.6,,,,,,160,170,-175,170,,,,,,,170
1,Tomasz Trzciński,B,Raw,Pro Submasters 33-39,No,M,Poland,35,100,94.6,,,,,,205,215,220,220,,,,,,,220
2,Michał Wilk,B,Raw,Pro Submasters 33-39,No,M,Poland,36,100,99.2,,,,,,202.5,-212.5,-217.5,202.5,,,,,,,202.5
1,Bartosz Kachelski,B,Raw,Pro Submasters 33-39,No,M,Poland,36,110,108.5,,,,,,225,235,-245,235,,,,,,,235
2,Tomasz Napierała,B,Raw,Pro Submasters 33-39,No,M,Poland,38,110,104.9,,,,,,190,200,205,205,,,,,,,205
3,Oleksandr Karnaukh,B,Raw,Pro Submasters 33-39,No,M,Ukraine,37,110,103.5,,,,,,195,200,-205,200,,,,,,,200
4,Grzegorz Rompalski,B,Raw,Pro Submasters 33-39,No,M,Poland,35,110,104.4,,,,,,180,-200,,180,,,,,,,180
1,Paweł Liszcz,B,Raw,Pro Submasters 33-39,No,M,Poland,39,125,116.1,,,,,,242.5,250,255,255,,,,,,,255
DQ,Arkadiusz Herodowicz,B,Raw,Pro Submasters 33-39,No,M,Poland,35,125,116.4,,,,,,-235,-240,-240,,,,,,,,
1,Arkadiusz Skrzypczak,B,Raw,Pro Submasters 33-39,No,M,Poland,34,140,132.4,,,,,,210,220,-230,220,,,,,,,220
2,Arkadiusz Duranowski,B,Raw,Pro Submasters 33-39,No,M,Poland,35,140,132.5,,,,,,-180,190,-200,190,,,,,,,190
1,Marcin Karkula,B,Raw,Pro Submasters 33-39,No,M,Poland,34,140+,158.4,,,,,,250,-262.5,-265,250,,,,,,,250
1,Jacek Krysiuk,B,Raw,Pro Masters 40-44,No,M,Poland,44,90,84.6,,,,,,160,165,170,170,,,,,,,170
1,Viktor Rublyov,B,Raw,Pro Masters 40-44,No,M,Ukraine,42,100,97.2,,,,,,160,170,-175,170,,,,,,,170
1,Andrzej Kocyła,B,Raw,Pro Masters 40-44,No,M,Poland,41,110,104.8,,,,,,-240,247.5,-255,247.5,,,,,,,247.5
2,Robert Kozłowski,B,Raw,Pro Masters 40-44,No,M,Poland,44,110,108.3,,,,,,170,185,-195,185,,,,,,,185
1,Oleksandr Desyatskyy,B,Raw,Pro Masters 40-44,No,M,Ukraine,41,125,125,,,,,,205,210,-215,210,,,,,,,210
2,Zbignew Drewniak,B,Raw,Pro Masters 40-44,No,M,Poland,44,125,125,,,,,,170,180,190,190,,,,,,,190
1,Maciej Knap,B,Raw,Pro Masters 40-44,No,M,Poland,42,140,132,,,,,,205,-220,220,220,,,,,,,220
DQ,Piotr Czapiewski,B,Raw,Pro Masters 40-44,No,M,Poland,42,140,130,,,,,,-225,-225,-225,,,,,,,,
1,Oleksandr Zhariy,B,Raw,Pro Masters 45-49,No,M,Ukraine,45,60,59.9,,,,,,122.5,127.5,-130,127.5,,,,,,,127.5
1,Dmitrii Kukharenko,B,Raw,Pro Masters 45-49,No,M,Spain,48,75,75,,,,,,160,165,170,170,-180,,,,,,170
1,Marek Gruszecki,B,Raw,Pro Masters 45-49,No,M,Poland,49,82.5,81,,,,,,120,130,140,140,,,,,,,140
1,Hovhannes Yazichyan,B,Raw,Pro Masters 45-49,No,M,Armenia,46,100,96.2,,,,,,210,215,220,220,-227.5,,,,,,220
1,Datuna Mzhavanadze,B,Raw,Pro Masters 45-49,No,M,Georgia,45,110,103.6,,,,,,170,190,-195,190,,,,,,,190
1,Zygmunt Wysocki,B,Raw,Pro Masters 50-54,No,M,Poland,51,82.5,80.9,,,,,,150,160,-162.5,160,,,,,,,160
1,Krzysztof Bożyczko-Jałocha,B,Raw,Pro Masters 50-54,No,M,Poland,52,110,108.2,,,,,,210,217.5,220,220,-225,,,,,,220
1,Roman Raczykowski,B,Raw,Pro Masters 55-59,No,M,Poland,56,110,100.5,,,,,,122.5,125,130,130,,,,,,,130
1,Waldemar Nacewicz,B,Raw,Pro Masters 55-59,No,M,Poland,54,140,135.6,,,,,,220,230,240,240,-245,,,,,,240
1,Mieczysłąw Maczka,B,Raw,Pro Masters 60-64,No,M,Germany,63,82.5,82,,,,,,100,107.5,112.5,112.5,,,,,,,112.5
2,Zbigniew Koper,B,Raw,Pro Masters 60-64,No,M,Poland,64,82.5,78.8,,,,,,-100,105,110,110,,,,,,,110
1,Ryszard Wilczak,B,Raw,Pro Masters 60-64,No,M,Poland,62,110,102.2,,,,,,150,152.5,-155,152.5,,,,,,,152.5
1,Henryk Świerzy,B,Raw,Pro Masters 60-64,No,M,Poland,61,125,110.2,,,,,,100,110,-115,110,,,,,,,110
1,Witold Tarkowski,B,Raw,Pro Masters 70-74,No,M,Poland,73,60,59.2,,,,,,-50,50,-55,50,,,,,,,50
1,Miroslaw Orłowski,B,Raw,Pro Masters 70-74,No,M,Poland,73,100,97.4,,,,,,135,-140,-140,135,,,,,,,135
1,Edward Limański,B,Raw,Pro Masters 80+,No,M,Poland,81,75,73.8,,,,,,50,55,-57.5,55,,,,,,,55
1,Wiesław Dąbrowski,B,Raw,Pro Masters 80+,No,M,Poland,77,82.5,77.5,,,,,,20,-30,35,35,,,,,,,35
1,Dawid Hartleb,B,Raw,Pro Military/Fire/Police,No,M,Poland,29,56,55.3,,,,,,75,-82.5,-82.5,75,,,,,,,75
1,Patryk Popiołek,B,Raw,Pro Military/Fire/Police,No,M,Poland,26,82.5,81.2,,,,,,180,190,-195,190,,,,,,,190
1,Rafał Kusz,B,Raw,Pro Military/Fire/Police,No,M,Poland,31,90,88,,,,,,170,177.5,180,180,,,,,,,180
2,Zbigniew Boczar,B,Raw,Pro Military/Fire/Police,No,M,Poland,32,90,84.6,,,,,,170,177.5,-180,177.5,,,,,,,177.5
3,Jacek Krysiuk,B,Raw,Pro Military/Fire/Police,No,M,Poland,44,90,84.6,,,,,,160,165,170,170,,,,,,,170
4,Grzegorz Joka,B,Raw,Pro Military/Fire/Police,No,M,Poland,30,90,88,,,,,,160,165,170,170,,,,,,,170
1,Tomasz Trzciński,B,Raw,Pro Military/Fire/Police,No,M,Poland,35,100,94.6,,,,,,205,215,220,220,,,,,,,220
1,Andrzej Kocyła,B,Raw,Pro Military/Fire/Police,No,M,Poland,41,110,104.8,,,,,,-240,247.5,-255,247.5,,,,,,,247.5
2,Tomasz Napierała,B,Raw,Pro Military/Fire/Police,No,M,Poland,38,110,104.9,,,,,,190,200,205,205,,,,,,,205
3,Wojciech Różycki,B,Raw,Pro Military/Fire/Police,No,M,Poland,31,110,107.8,,,,,,180,190,-197.5,190,,,,,,,190
4,Karol Bikowski,B,Raw,Pro Military/Fire/Police,No,M,Poland,30,110,102.9,,,,,,155,-160,-162.5,155,,,,,,,155
1,Paweł Liszcz,B,Raw,Pro Military/Fire/Police,No,M,Poland,39,125,116.1,,,,,,242.5,250,255,255,,,,,,,255
1,Sławomir Jędrzejko,B,Raw,Pro Paralympian,No,M,Poland,29,90,89.5,,,,,,100,107.5,110,110,,,,,,,110
1,Bartłomiej Rogoziński,B,Raw,Pro Paralympian,No,M,Poland,35,100,94.5,,,,,,140,147.5,,147.5,,,,,,,147.5
1,Dawid Lange,B,Raw,Pro Paralympian,No,M,Poland,29,140,135,,,,,,200,-210,-215,200,,,,,,,200
1,Anna Lyubarska,B,Raw,Pro Teen 16-17,No,F,Ukraine,17,67.5,67.5,,,,,,80,85,-87.5,85,,,,,,,85
1,Carmena Luty,B,Raw,Pro Teen 18-19,No,F,Poland,18,75,73.1,,,,,,60,62.5,-65,62.5,,,,,,,62.5
1,Anita Grądzka,B,Raw,Pro Open,No,F,Poland,33,44,40,,,,,,65,70,-75,70,,,,,,,70
1,Honorata Kaczorowska,B,Raw,Pro Open,No,F,Poland,32,67.5,64.1,,,,,,120,-127.5,127.5,127.5,,,,,,,127.5
2,Anna Lyubarska,B,Raw,Pro Open,No,F,Ukraine,17,67.5,67.5,,,,,,80,85,-87.5,85,,,,,,,85
1,Adriana Bończak,B,Raw,Pro Open,No,F,Poland,44,75,68.3,,,,,,95,100,102.5,102.5,,,,,,,102.5
2,Marta Chachuła,B,Raw,Pro Open,No,F,Poland,29,75,69.8,,,,,,95,100,102.5,102.5,,,,,,,102.5
3,Magdalena Pietrzyk,B,Raw,Pro Open,No,F,Poland,26,75,69.7,,,,,,80,90,-97.5,90,,,,,,,90
1,Svetlana Sinacheva,B,Raw,Pro Open,No,F,Russia,50,82.5,78.7,,,,,,112.5,115,-117.5,115,,,,,,,115
1,Anita Grądzka,B,Raw,Pro Submasters 33-39,No,F,Poland,33,44,40,,,,,,65,70,-75,70,,,,,,,70
1,Renata Olczyk,B,Raw,Pro Submasters 33-39,No,F,Poland,36,52,50.9,,,,,,30,35,-40,35,,,,,,,35
1,Justyna Stankowska,B,Raw,Pro Masters 40-44,No,F,Poland,40,60,59.2,,,,,,57.5,60,-62.5,60,,,,,,,60
1,Adriana Bończak,B,Raw,Pro Masters 40-44,No,F,Poland,44,75,68.3,,,,,,95,100,102.5,102.5,,,,,,,102.5
1,Elżbieta Świecik,B,Raw,Pro Masters 45-49,No,F,Poland,47,56,55.1,,,,,,35,-40,-40,35,,,,,,,35
1,Jolanta Anasiewicz-Popowicz,B,Raw,Pro Masters 45-49,No,F,Poland,48,60,60,,,,,,90,95,-97.5,95,,,,,,,95
1,Svetlana Sinacheva,B,Raw,Pro Masters 50-54,No,F,Russia,50,82.5,78.7,,,,,,112.5,115,-117.5,115,,,,,,,115
1,Krystyna Puzio,B,Raw,Pro Masters 50-54,No,F,Poland,52,90+,98,,,,,,60,65,70,70,,,,,,,70
1,Dorota Kozakiewicz,B,Raw,Pro Military/Fire/Police,No,F,Poland,25,82.5,78,,,,,,90,95,97.5,97.5,,,,,,,97.5
2,Iwona Poniatowska,B,Raw,Pro Military/Fire/Police,No,F,Poland,27,82.5,78.3,,,,,,-50,57.5,-60,57.5,,,,,,,57.5
1,Magdalena Konior,B,Raw,Pro Paralympian,No,F,Poland,41,67.5,65.1,,,,,,85,90,92.5,92.5,,,,,,,92.5
1,Dawid Urbanowicz,B,Multi-ply,Pro Teen 18-19,No,M,Poland,18,82.5,76.1,,,,,,-130,130,140,140,,,,,,,140
DQ,Tomasz Wawrzyczek,B,Multi-ply,Pro Juniors 20-23,No,M,Poland,21,100,92.1,,,,,,-230,-230,-241,,,,,,,,
1,Vilyam Saroyan,B,Multi-ply,Pro Open,No,M,Armenia,23,75,71.7,,,,,,100,-120,-145,100,,,,,,,100
DQ,Volodymyr Galyga,B,Multi-ply,Pro Open,No,M,Ukraine,34,90,90,,,,,,-240,-240,-240,,,,,,,,
1,Sebastian Dąbrowski,B,Multi-ply,Pro Open,No,M,Poland,37,100,94.4,,,,,,-265,275,-285,275,,,,,,,275
2,Franciszek Szabluk,B,Multi-ply,Pro Open,No,M,Poland,61,100,98,,,,,,215,-225,225,225,-230,,,,,,225
3,Paweł Chilakowski,B,Multi-ply,Pro Open,No,M,Poland,24,100,94.1,,,,,,-205,210,-215,210,,,,,,,210
1,Vladimir Omelkov,B,Multi-ply,Pro Open,No,M,Russia,47,110,106.1,,,,,,-250,-250,250,250,-251,,,,,,250
2,Krzysztof Celiński,B,Multi-ply,Pro Open,No,M,Poland,32,110,106.3,,,,,,230,240,-285,240,,,,,,,240
DQ,Grzegorz Wałga,B,Multi-ply,Pro Open,No,M,Poland,30,125,116,,,,,,-400,-400,-410,,,,,,,,
DQ,Volodymyr Galyga,B,Multi-ply,Pro Submasters 33-39,No,M,Ukraine,34,90,90,,,,,,-240,-240,-240,,,,,,,,
1,Sebastian Dąbrowski,B,Multi-ply,Pro Submasters 33-39,No,M,Poland,37,100,94.4,,,,,,-265,275,-285,275,,,,,,,275
2,Robert Sawośko,B,Multi-ply,Pro Submasters 33-39,No,M,Poland,36,100,99.9,,,,,,-210,210,-220,210,,,,,,,210
3,Bartłomiej Rogoziński,B,Multi-ply,Pro Submasters 33-39,No,M,Poland,35,100,94.5,,,,,,177.5,-182.5,,177.5,,,,,,,177.5
1,Michal Niestroj,B,Multi-ply,Pro Submasters 33-39,No,M,Poland,37,125,120.5,,,,,,220,230,240,240,,,,,,,240
1,Igor Povazhniuk,B,Multi-ply,Pro Masters 40-44,No,M,Ukraine,42,82.5,79.9,,,,,,240,-250,-275,240,,,,,,,240
1,Sebastjan Balner,B,Multi-ply,Pro Masters 40-44,No,M,Poland,44,110,102.7,,,,,,200,-240,-240,200,,,,,,,200
1,Vladimir Omelkov,B,Multi-ply,Pro Masters 45-49,No,M,Russia,47,110,106.1,,,,,,-250,-250,250,250,-251,,,,,,250
1,Mieczysłąw Maczka,B,Multi-ply,Pro Masters 60-64,No,M,Germany,63,82.5,82,,,,,,100,-110,-130,100,,,,,,,100
1,Franciszek Szabluk,B,Multi-ply,Pro Masters 60-64,No,M,Poland,61,100,98,,,,,,215,-225,225,225,-230,,,,,,225
1,Wojciech Grabowski,B,Multi-ply,Pro Masters 65-69,No,M,Poland,66,110,108,,,,,,200,220,230,230,240,,,,,,230
