Place,Sex,Name,CyrillicName,BodyweightKg,Bench1Kg,Bench2Kg,Bench3Kg,Best3BenchKg,Bench4Kg,TotalKg,WeightClassKg,Event,Equipment,Tested,Deadlift1Kg,Deadlift2Kg,Deadlift3Kg,Best3DeadliftKg,Deadlift4Kg,Division,Age,BirthDate
1,M,Roman Brekhov,Роман Брехов,105.9,272.5,-280,-280,272.5,,272.5,110,B,Single-ply,No,,,,,,Pro Open,30,1990-02-24
1,M,Aleksey Kondakov,Алексей Кондаков,81.9,150,155,-160,155,,155,82.5,B,Raw,No,,,,,,Pro Masters 50-54,50,1970-07-22
1,M,Nikolay Kostev,Николай Костев,82.5,130,140,145,145,,145,82.5,B,Raw,No,,,,,,Pro Masters 60-64,60,1959-12-17
1,M,Anton Sosunov,Антон Сосунов,85.9,135,140,142.5,142.5,,142.5,90,B,Raw,No,,,,,,Pro Open,39,1980-12-14
2,M,Aleksey Firsov,Алексей Фирсов,87.4,125,135,-145,135,,135,90,B,Raw,No,,,,,,Pro Open,31,1988-12-29
1,M,Nikolay Petrokovich,Николай Петрокович,88.3,-102.5,102.5,107.5,107.5,,107.5,90,B,Raw,No,,,,,,Pro Masters 40-44,41,1979-08-17
1,M,Artyom Suvorov,Артём Суворов,98.9,152.5,162.5,165,165,,165,100,B,Raw,No,,,,,,Pro Open,32,1988-05-21
1,M,Kirill Shulimov,Кирилл Шулимов,100,175,180,-182.5,180,,180,100,B,Raw,No,,,,,,Pro Masters 40-44,40,1980-06-04
1,M,Vyacheslav Klimov,Вячеслав Климов,147.2,,,,,,190,140+,D,Raw,No,170,180,190,190,,Pro Teen 15-19,18,2002-09-30
1,F,Yuliya Kapinos,Юлия Капинос,49.1,40,-45,-45,40,,40,52,B,Raw,Yes,,,,,,Amateur Teen 15-19,19,2001-07-29
1,F,Dzhamilya Ashukova,Джамиля Ашукова,51.3,45,47.5,50,50,,50,52,B,Raw,Yes,,,,,,Amateur Open,29,1991-08-05
1,F,Natalya Kuzovleva,Наталья Кузовлева,50.7,40,-42.5,-45,40,,40,52,B,Raw,Yes,,,,,,Amateur Masters 50-54,53,1967-01-16
1,F,Diana Elmanova,Диана Елманова,53.5,-47.5,47.5,-55,47.5,,47.5,56,B,Raw,Yes,,,,,,Amateur Juniors 20-23,21,1999-02-09
1,F,Darya Romanova,Дарья Романова,57.6,42.5,-45,-47.5,42.5,,42.5,60,B,Raw,Yes,,,,,,Amateur Teen 15-19,15,2005-05-30
1,F,Yana Fedyunina,Яна Федюнина,66.5,75,-77.5,-77.5,75,,75,67.5,B,Raw,Yes,,,,,,Amateur Masters 40-44,44,1975-11-15
2,F,Anastasiya Gruzdeva,Анастасия Груздева,66,42.5,45,-47.5,45,,45,67.5,B,Raw,Yes,,,,,,Amateur Masters 40-44,41,1979-08-12
1,M,Sergey Neyman,Сергей Нейман,59.8,-90,90,100,100,,100,60,B,Raw,Yes,,,,,,Amateur Teen 15-19,19,2000-12-21
1,M,Yuriy Serdyuchenko,Юрий Сердюченко,63,50,55,60,60,,60,67.5,B,Raw,Yes,,,,,,Amateur Masters 40-44,43,1977-09-20
1,M,Zhakhangir Khalmirzaev,Жахангир Халмирзаев,80.6,142.5,-147.5,-147.5,142.5,,142.5,82.5,B,Raw,Yes,,,,,,Amateur Open,37,1983-03-19
2,M,Konstantin Fursov,Константин Фурсов,79.9,125,130,-135,130,,130,82.5,B,Raw,Yes,,,,,,Amateur Open,36,1983-11-12
3,M,Oleg Ivashchenko,Олег Иващенко,81.3,130,-135,-135,130,,130,82.5,B,Raw,Yes,,,,,,Amateur Open,30,1990-07-18
1,M,Artem Mishchenko,Артем Мищенко,88.4,182.5,185,187.5,187.5,,187.5,90,B,Raw,Yes,,,,,,Amateur Open,36,1984-06-26
2,M,Rustam Bogoutdinov,Рустам Богоутдинов,87.8,-160,160,167.5,167.5,,167.5,90,B,Raw,Yes,,,,,,Amateur Open,38,1982-06-05
3,M,Denis Nikonov,Денис Никонов,87,127.5,-135,135,135,,135,90,B,Raw,Yes,,,,,,Amateur Open,38,1982-03-21
1,M,Oleg Dymov,Олег Дымов,88.8,150,160,165,165,,165,90,B,Raw,Yes,,,,,,Amateur Masters 50-54,50,1970-05-02
1,M,Leonid Smirnov,Леонид Смирнов,89.2,-117.5,117.5,-125,117.5,,117.5,90,B,Raw,Yes,,,,,,Amateur Masters 60-64,63,1957-09-26
1,M,Aleksandr Martyshin,Александр Мартышин,94.1,155,160,-165,160,,160,100,B,Raw,Yes,,,,,,Amateur Open,33,1986-10-15
2,M,Vladislav Reva,Владислав Рева,99.2,137.5,-142.5,142.5,142.5,,142.5,100,B,Raw,Yes,,,,,,Amateur Open,33,1987-05-01
1,M,Arseniy Ovechkin,Арсений Овечкин,110,137.5,-145,-145,137.5,,137.5,110,B,Raw,Yes,,,,,,Amateur Teen 15-19,18,2002-06-25
1,M,Sergey Maksimov,Сергей Максимов,101.6,165,170,-175,170,,170,110,B,Raw,Yes,,,,,,Amateur Open,45,1975-09-15
1,M,Kirill Remin,Кирилл Ремин,103.5,170,175,-180,175,,175,110,B,Raw,Yes,,,,,,Amateur Masters 45-49,45,1975-08-13
2,M,Sergey Maksimov,Сергей Максимов,101.6,165,170,-175,170,,170,110,B,Raw,Yes,,,,,,Amateur Masters 45-49,45,1975-09-15
1,M,Pavel Bukhantsev,Павел Буханцев,108.8,175,180,-185,180,,180,110,B,Raw,Yes,,,,,,Amateur Masters 50-54,51,1969-08-02
1,M,Aleksandr Kuznetsov #39,Александр Кузнецов,114,110,120,-135,120,,120,125,B,Raw,Yes,,,,,,Amateur Open,33,1987-05-06
1,F,Anastasiya Galkina,Анастасия Галкина,67.5,,,,,,120,67.5,D,Raw,Yes,105,120,-125,120,,Amateur Open,31,1989-02-08
1,F,Elena Chobanu,Елена Чобану,54.6,,,,,,107.5,56,D,Raw,Yes,95,107.5,-110,107.5,,Amateur Open,29,1990-12-14
1,M,Sergey Neyman,Сергей Нейман,59.8,,,,,,175,60,D,Raw,Yes,-152.5,152.5,175,175,,Amateur Teen 15-19,19,2000-12-21
1,M,Sergey Brykov,Сергей Брыков,70.4,,,,,,185,75,D,Raw,Yes,170,180,185,185,,Amateur Juniors 20-23,21,1999-04-21
1,M,Artem Goshkevich,Артем Гошкевич,81.6,,,,,,200,82.5,D,Raw,Yes,180,190,200,200,,Amateur Open,26,1994-01-24
DQ,M,Roman Sinelnikov,Роман Синельников,98.1,,,,,,,100,D,Raw,Yes,-230,,,,,Amateur Masters 40-44,44,1976-06-06
