Sex,Name,CyrillicName,Place,BodyweightKg,Squat1Kg,Squat2Kg,Squat3Kg,Best3SquatKg,Squat4Kg,TotalKg,WeightClassKg,Event,Equipment,Tested,Deadlift1Kg,Deadlift2Kg,Deadlift3Kg,Best3DeadliftKg,Deadlift4Kg,Bench1Kg,Bench2Kg,Bench3Kg,Best3BenchKg,Bench4Kg,Division,BirthDate
M,Ilya Zozin,Илья Зозин,1,73.9,155,160,-165,160,,160,75,S,Wraps,Yes,,,,,,,,,,,M-O,1985-07-05
F,Anzhelika Varsovskaya,Анжелика Варсовская,1,57.7,,,,,,112.5,60,D,Single-ply,No,90,107.5,112.5,112.5,,,,,,,F-M2-E,1974-06-15
M,Aleksandr Grushinskiy,Александр Грушинский,1,86.9,,,,,,300,90,D,Single-ply,No,280,300,,300,,,,,,,M-M1-E,1975-02-06
M,Aleksandr Girilyal,Александр Гирилял,1,120.1,,,,,,325,125,D,Single-ply,No,325,-340,-340,325,,,,,,,M-O-E,1987-05-08
F,Vera Deyko,Вера Дейко,1,51.5,,,,,,100,52,D,Raw,Yes,90,95,100,100,,,,,,,F-J,1997-09-23
F,Oksana Isaeva,Оксана Исаева,1,51.8,,,,,,105,52,D,Raw,Yes,95,105,-115,105,,,,,,,F-O,1983-01-03
F,Darya Shchupets,Дарья Щупец,1,53,,,,,,125,56,D,Raw,Yes,115,125,,125,,,,,,,F-O,1993-04-11
F,Yuliya Klimenko,Юлия Клименко,2,56,,,,,,87.5,56,D,Raw,Yes,75,82.5,87.5,87.5,,,,,,,F-O,1990-08-06
F,Valeriya Maskaeva,Валерия Маскаева,1,60,,,,,,127.5,60,D,Raw,Yes,110,120,127.5,127.5,,,,,,,F-T3,2000-10-25
F,Ekaterina Zhitnik,Екатерина Житник,1,64,,,,,,140,67.5,D,Raw,Yes,135,140,-150,140,,,,,,,F-O,1988-07-02
F,Margarita Bondarenko,Маргарита Бондаренко,1,89.2,,,,,,135,90,D,Raw,Yes,132.5,-135,135,135,,,,,,,F-O,1978-07-08
M,Feliks Khalidov,Феликс Халидов,1,64.4,,,,,,125,67.5,D,Raw,Yes,110,117.5,125,125,,,,,,,M-T1,2006-07-17
M,Maksim Evstifeev,Максим Евстифеев,1,70.3,,,,,,210,75,D,Raw,Yes,200,205,210,210,,,,,,,M-J,1996-02-26
M,Andrey Kosatyy,Андрей Косатый,1,78.1,,,,,,170,82.5,D,Raw,Yes,-150,150,170,170,,,,,,,M-T2,2002-04-19
M,Ruslan Slonov,Руслан Слонов,1,82.3,,,,,,240,82.5,D,Raw,Yes,220,230,240,240,,,,,,,M-O,1989-11-07
M,Aleksandr Kisel,Александр Кисель,1,87,,,,,,235,90,D,Raw,Yes,222.5,230,235,235,,,,,,,M-O,1982-03-02
M,Erik Sarkisyan,Эрик Саркисян,1,109.2,,,,,,165,110,D,Raw,Yes,135,150,165,165,,,,,,,M-T2,2003-08-19
M,Dmitriy Kislitsin,Дмитрий Кислицин,1,108,,,,,,250,110,D,Raw,Yes,230,240,250,250,,,,,,,M-O,1980-11-17
M,Roman Kurakulov,Роман Куракулов,2,104.6,,,,,,230,110,D,Raw,Yes,210,230,-240,230,,,,,,,M-O,1989-07-31
M,Petr Padalkin,Петр Падалкин,3,108,,,,,,230,110,D,Raw,Yes,210,225,230,230,,,,,,,M-O,1984-11-17
M,Ivan Krapivka,Иван Крапивка,1,108,,,,,,280,110,D,Raw,Yes,240,275,280,280,,,,,,,M-M1,1977-10-13
M,Stanislav Gaydukov,Станислав Гайдуков,2,107.5,,,,,,210,110,D,Raw,Yes,145,165,210,210,,,,,,,M-M1,1977-05-13
M,Viktor Banman,Виктор Банман,1,81.5,,,,,,180,82.5,D,Single-ply,Yes,170,180,,180,,,,,,,M-M5-E,1957-01-18
M,Aleksandr Domanskiy,Александр Доманский,1,90,,,,,,215,90,D,Single-ply,Yes,190,205,215,215,220,,,,,,M-O-E,1985-11-21
M,Aleksandr Rasskazov,Александр Рассказов,1,89.9,,,,,,130,90,B,Single-ply,No,,,,,,130,-140,-145,130,,M-M4-E,1961-06-27
M,Mikhail Severov,Михаил Северов,1,81.5,,,,,,200,82.5,B,Unlimited,No,,,,,,185,200,-205,200,,M-M1-E,1975-12-26
M,Anatoliy Melnik,Анатолий Мельник,1,95,,,,,,200,100,B,Unlimited,No,,,,,,200,-215,-215,200,,M-O-E,1992-12-09
M,Telman Aliev,Тельман Алиев,1,117.1,,,,,,345,125,B,Unlimited,Yes,,,,,,300,325,345,345,,M-O-E,1981-07-04
F,Irina Tishina,Ирина Тишина,1,48.5,,,,,,65,52,B,Raw,Yes,,,,,,62.5,65,-67.5,65,,F-O,1978-10-05
F,Viktoriya Ruchka,Виктория Ручка,1,82.5,,,,,,55,82.5,B,Raw,Yes,,,,,,-55,55,-60,55,,F-O,1987-06-08
M,Ivan Luchenkov,Иван Лученков,1,66.6,,,,,,145,67.5,B,Raw,Yes,,,,,,-145,145,-150,145,,M-O,1991-03-30
M,Konstantin Triandofilidi,Константин Триандофилиди,1,70.8,,,,,,135,75,B,Raw,Yes,,,,,,127.5,135,-137.5,135,,M-J,1997-10-22
M,Valeriy Popov,Валерий Попов,1,72.1,,,,,,142.5,75,B,Raw,Yes,,,,,,135,140,142.5,142.5,,M-O,1981-10-21
M,Mark Abadzhyan,Марк Абаджян,2,74.9,,,,,,135,75,B,Raw,Yes,,,,,,127.5,135,-145,135,,M-O,1995-09-08
M,Vadim Vysotskiy,Вадим Высоцкий,1,81.4,,,,,,167.5,82.5,B,Raw,Yes,,,,,,162.5,167.5,,167.5,,M-O,1984-11-12
M,Ivan Martynenko,Иван Мартыненко,2,82.5,,,,,,155,82.5,B,Raw,Yes,,,,,,145,150,155,155,,M-O,1988-10-19
M,Sergey Atyasov,Сергей Атясов,3,81.8,,,,,,150,82.5,B,Raw,Yes,,,,,,145,150,-155,150,,M-O,1988-02-19
M,Andrey Kozhedub,Андрей Кожедуб,1,81.2,,,,,,140,82.5,B,Raw,Yes,,,,,,-140,140,-145,140,,M-M1,1979-12-05
M,Aleksey Vasilyaka,Алексей Василяка,1,80.9,,,,,,132.5,82.5,B,Raw,Yes,,,,,,130,132.5,-135,132.5,,M-M2,1973-12-11
M,Roman Osin #2,Роман Осин,1,86.8,,,,,,135,90,B,Raw,Yes,,,,,,125,132.5,135,135,,M-O,1993-10-26
M,Vasiliy Baranov,Василий Баранов,1,89.6,,,,,,152.5,90,B,Raw,Yes,,,,,,140,150,152.5,152.5,,M-M1,1977-12-05
M,Vasiliy Kunitsa,Василий Куница,1,98.2,,,,,,155,100,B,Raw,Yes,,,,,,155,-162.5,-162.5,155,,M-O,1991-12-12
M,Artem Polyanskiy,Артем Полянский,2,95.4,,,,,,150,100,B,Raw,Yes,,,,,,140,150,-155,150,,M-O,1985-03-31
M,Dmitriy Nadzha,Дмитрий Наджа,1,99.2,,,,,,185,100,B,Raw,Yes,,,,,,170,180,185,185,,M-M1,1975-10-10
M,Ivan Krapivka,Иван Крапивка,1,108,,,,,,170,110,B,Raw,Yes,,,,,,-150,170,-175,170,,M-M1,1977-10-13
F,Marina Morozova,Марина Морозова,1,74,,,,,,185,75,B,Unlimited,No,,,,,,170,-185,185,185,,F-M1-E,1978-10-09
M,Aleksey Morozov,Алексей Морозов,1,120.9,,,,,,310,125,B,Unlimited,No,,,,,,300,310,-325,310,,M-M1-E,1979-04-11
M,Arman Kulibaev,Арман Кулибаев,1,75,,,,,,160,75,B,Single-ply,Yes,,,,,,160,-170,-182.5,160,,M-O-E,1983-01-18
M,Grigoriy Kotkov,Григорий Котков,1,48.7,,,,,,25,56,B,Raw,No,,,,,,20,25,-27.5,25,,M-T1,2005-07-11
M,Vladislav Fufaev,Владислав Фуфаев,2,52.4,,,,,,25,56,B,Raw,No,,,,,,20,25,-27.5,25,,M-T1,2004-02-23
M,Evgeniy Sapronov,Евгений Сапронов,1,65,,,,,,25,67.5,B,Raw,No,,,,,,20,-25,25,25,,M-T2,2004-01-19
M,Anatoliy Krylov,Анатолий Крылов,1,82.5,,,,,,190,82.5,B,Raw,No,,,,,,180,185,190,190,,M-O,1986-08-22
M,Fedor Ushakov,Федор Ушаков,2,79.5,,,,,,82.5,82.5,B,Raw,No,,,,,,75,-82.5,82.5,82.5,,M-O,1983-03-23
M,Soslan Togoev,Сослан Тогоев,1,85,,,,,,115,90,B,Raw,No,,,,,,100,110,115,115,,M-O,1986-07-16
M,Pavel Mitrofanov,Павел Митрофанов,1,98.5,350,-375,-375,350,,350,100,S,Single-ply,No,,,,,,,,,,,M-O-E,1983-08-12
M,Vladimir Zakharov,Владимир Захаров,1,98.7,-190,200,210,210,,210,100,S,Single-ply,No,,,,,,,,,,,M-M5-E,1955-07-07
F,Lada Slobodenyuk,Лада Слободенюк,1,55.3,,,,,,85,56,D,Raw,No,70,80,85,85,,,,,,,F-T1,2004-12-24
M,Sergey Klimov,Сергей Климов,1,46,,,,,,50,56,D,Raw,No,20,30,50,50,,,,,,,M-Y,2008-10-30
M,Ilya Zozin,Илья Зозин,1,73.9,,,,,,185,75,D,Raw,No,-185,185,,185,,,,,,,M-O,1985-07-05
M,Roman Ermilov,Роман Ермилов,1,80.3,,,,,,210,82.5,D,Raw,No,150,180,210,210,,,,,,,M-O,1989-10-19
M,Denis Olkhovoy,Денис Ольховой,1,86.5,,,,,,190,90,D,Raw,No,180,190,-200,190,,,,,,,M-O,1994-07-28
M,Roman Fedorov,Роман Федоров,1,92.5,,,,,,260,100,D,Raw,No,250,260,,260,,,,,,,M-O,1980-08-23
M,Yuriy Vydra,Юрий Выдра,1,109,,,,,,200,110,D,Raw,No,165,180,200,200,,,,,,,M-M1,1977-01-26
M,Yuriy Vydra,Юрий Выдра,2,109.4,,,,,,200,110,D,Raw,No,200,-230,-230,200,,,,,,,M-M1,1977-01-26
M,Anatoliy Talovasov,Анатолий Таловасов,1,104.2,,,,,,235,110,D,Raw,No,200,220,235,235,,,,,,,M-M4,1960-12-01
M,Oleg Novoseltsev,Олег Новосельцев,1,123.8,,,,,,285,125,D,Raw,No,250,285,-295,285,,,,,,,M-O,1985-05-10
M,Aleksandr Yarantsev,Александр Яранцев,2,115.8,,,,,,260,125,D,Raw,No,260,-280,-280,260,,,,,,,M-O,1992-02-21
M,Mayrbek Ibuev,Майрбек Ибуев,DQ,110.6,,,,,,,125,D,Raw,No,-120,,,,,,,,,,M-M3,1965-05-21
M,Radomir Kislitsyn,Радомир Кислицын,1,48,,,,,,32.5,56,B,Raw,No,,,,,,30,-32.5,32.5,32.5,,M-Y,2009-01-03
M,Andrey Slobodenyuk,Андрей Слободенюк,DQ,51,,,,,,,56,B,Raw,No,,,,,,-40,-45,-45,,,M-T1,2006-10-24
M,Artem Likhman,Артем Лихман,1,76.2,,,,,,105,82.5,B,Raw,No,,,,,,95,100,105,105,,M-T1,2005-12-16
M,Ruslan Ervasov,Руслан Ервасов,1,76.1,,,,,,100,82.5,B,Raw,No,,,,,,100,-110,,100,,M-J,1997-05-17
M,Aleksandr Votchenko,Александр Вотченко,1,81,,,,,,150,82.5,B,Raw,No,,,,,,150,-160,-160,150,,M-O,1996-01-09
M,Aleksandr Budaev,Александр Будаев,1,88.8,,,,,,135,90,B,Raw,No,,,,,,135,-140,-140,135,,M-J,1998-04-03
M,Evgeniy Korotchenko,Евгений Коротченко,1,90.4,,,,,,150,100,B,Raw,No,,,,,,140,150,-160,150,,M-J,1996-04-03
M,Ruslan Dyachkov,Руслан Дьячков,1,108.3,,,,,,155,110,B,Raw,No,,,,,,145,150,155,155,,M-O,1994-05-01
M,Nikolay Tsypushkin,Николай Цыпушкин,1,119.5,,,,,,190,125,B,Raw,No,,,,,,180,190,-200,190,,M-J,1996-05-17
M,Vitaliy Sorokotyagin,Виталий Сорокотягин,1,114,,,,,,220,125,B,Raw,No,,,,,,200,220,-235,220,,M-O,1981-05-28
M,Artur Tozliyan,Артур Тозлиян,2,124,,,,,,200,125,B,Raw,No,,,,,,190,200,-207.5,200,,M-O,1996-11-22
F,Kristina Namitok,Кристина Намиток,1,67.3,125,130,-135,130,,312.5,67.5,SBD,Wraps,No,125,130,132.5,132.5,,-45,50,-55,50,,F-O,1985-03-02
F,Marina Morozova,Марина Морозова,1,74,200,215,-230,215,,537.5,75,SBD,Wraps,No,200,210,-215,210,,105,112.5,,112.5,,F-M1,1978-10-09
M,Pavel Kolpakov,Павел Колпаков,1,73.8,220,240,250,250,,610,75,SBD,Wraps,No,210,220,230,230,,120,130,-132.5,130,,M-J,1998-06-18
M,Andrey Aladin,Андрей Аладин,1,72.5,150,165,-180,165,,470,75,SBD,Wraps,No,150,170,-185,170,,110,125,135,135,,M-O,1993-09-08
M,Ivan Sergeev,Иван Сергеев,1,94,-140,-140,140,140,,420,100,SBD,Wraps,No,-150,150,170,170,,-100,100,110,110,,M-T3,2001-09-12
M,Vladimir Poteev,Владимир Потеев,1,98.9,285,295,305,305,,725,100,SBD,Wraps,No,250,260,-270,260,,152.5,157.5,160,160,,M-O,1994-10-13
M,Yuriy Vydra,Юрий Выдра,1,109,-180,180,-195,180,,515,110,SBD,Wraps,No,165,180,200,200,,135,-142.5,-142.5,135,,M-M1,1977-01-26
M,Aleksand Trushin,Александ Трушин,1,109,-135,-135,135,135,,415,110,SBD,Wraps,No,150,160,-170,160,,-120,120,-125,120,,M-M2,1974-05-07
M,Sergey Starodubskiy,Сергей Стародубский,1,122.8,300,-330,-340,300,,792.5,125,SBD,Wraps,No,290,320,,320,,160,172.5,,172.5,,M-M1,1977-12-20
M,Mayrbek Ibuev,Майрбек Ибуев,DQ,110.6,-120,-120,-130,,,,125,SBD,Wraps,No,-120,,,,,-100,,,,,M-M3,1965-05-21
F,Oksana Isaeva,Оксана Исаева,1,51.8,85,-100,-100,85,,225,52,SBD,Wraps,Yes,105,-110,-110,105,,35,-42.5,-42.5,35,,F-O,1983-01-03
F,Darya Shchupets,Дарья Щупец,1,53,110,-120,-120,110,,292.5,56,SBD,Wraps,Yes,115,125,,125,,50,55,57.5,57.5,,F-O,1993-04-11
F,Yuliya Klimenko,Юлия Клименко,2,56,75,-85,-85,75,,197.5,56,SBD,Wraps,Yes,75,82.5,87.5,87.5,,30,35,-40,35,,F-O,1990-08-06
F,Valeriya Maskaeva,Валерия Маскаева,1,60,115,-125,-125,115,,295,60,SBD,Wraps,Yes,110,120,127.5,127.5,,40,45,52.5,52.5,,F-T3,2000-10-25
F,Ekaterina Zhitnik,Екатерина Житник,1,64,105,-115,-115,105,,295,67.5,SBD,Wraps,Yes,135,-150,,135,,45,50,55,55,,F-O,1988-07-02
M,Evgeniy Poltavskiy,Евгений Полтавский,1,89.9,-200,200,-205,200,,620,90,SBD,Wraps,Yes,240,250,,250,,170,-180,-180,170,,M-O,1994-12-17
M,Pavel Dedik,Павел Дедик,1,108.5,200,205,210,210,,605,110,SBD,Wraps,Yes,235,245,-250,245,,140,147.5,150,150,,M-M1,1975-05-04
M,Yuriy Cherpakov,Юрий Черпаков,1,107.7,140,-155,-155,140,,385,110,SBD,Wraps,Yes,-140,140,150,150,,-95,95,-105,95,,M-M3,1970-01-01
M,Pavel Mitrofanov,Павел Митрофанов,1,98.5,350,-375,-375,350,,850,100,SBD,Single-ply,No,250,,,250,,250,,,250,,M-O-E,1983-08-12
